
0x27,0x37,0x91,0x35,0x67,0x32,0x5F,0x62,
0x6F,0x6F,0x74,0x6C,0x6F,0x61,0x64,0x65,
0x72,0x00,0x00,0x00,0xC2,0xE5,0xAD,0xDB,
0x00,0x10,0x00,0x20,0x2D,0x28,0x00,0x00,
0x02,0x00,0x00,0x00,0x00,0x00,0x00,0x00,
0x00,0x00,0x00,0x00,0x00,0x01,0x00,0x00,
0xFF,0x09,0xED,0x55,0x00,0x00,0x00,0x00,
0x00,0x00,0x00,0x00,0x00,0x00,0x00,0x00,
0x00,0x00,0x00,0x00,0x00,0x00,0x00,0x00,
0x00,0x00,0x00,0x00,0x00,0x00,0x00,0x00,
0x00,0x00,0x00,0x00,0x00,0x00,0x00,0x00,
0x00,0x00,0x00,0x00,0x00,0x00,0x00,0x00,
0x00,0x00,0x00,0x00,0x00,0x00,0x00,0x00,
0x00,0x00,0x00,0x00,0x00,0x00,0x00,0x00,
0x00,0x00,0x00,0x00,0x00,0x00,0x00,0x00,
0x00,0x00,0x00,0x00,0x00,0x00,0x00,0x00,
0x00,0x00,0x00,0x00,0x00,0x00,0x00,0x00,
0x00,0x00,0x00,0x00,0x00,0x00,0x00,0x00,
0x00,0x00,0x00,0x00,0x00,0x00,0x00,0x00,
0x00,0x00,0x00,0x00,0x00,0x00,0x00,0x00,
0x00,0x00,0x00,0x00,0x00,0x00,0x00,0x00,
0x00,0x00,0x00,0x00,0x00,0x00,0x00,0x00,
0x00,0x00,0x00,0x00,0x00,0x00,0x00,0x00,
0x00,0x00,0x00,0x00,0x00,0x00,0x00,0x00,
0x00,0x00,0x00,0x00,0x00,0x00,0x00,0x00,
0x00,0x00,0x00,0x00,0x00,0x00,0x00,0x00,
0x00,0x00,0x00,0x00,0x00,0x00,0x00,0x00,
0x00,0x00,0x00,0x00,0x00,0x00,0x00,0x00,
0x00,0x00,0x00,0x00,0x00,0x00,0x00,0x00,
0x00,0x00,0x00,0x00,0x00,0x00,0x00,0x00,
0x00,0x00,0x00,0x00,0x00,0x00,0x00,0x00,
0x00,0x00,0x00,0x00,0x00,0x00,0x00,0x00,
0x00,0x00,0x00,0x00,0x00,0x00,0x00,0x00,
0x00,0x00,0x00,0x00,0x00,0x00,0x00,0x00,
0x00,0x00,0x00,0x00,0x00,0x00,0x00,0x00,
0x00,0x00,0x00,0x00,0x00,0x00,0x00,0x00,
0x00,0x00,0x00,0x00,0x00,0x00,0x00,0x00,
0x00,0x00,0x00,0x00,0x00,0x00,0x00,0x00,
0x00,0x00,0x00,0x00,0x00,0x00,0x00,0x00,
0x00,0x00,0x00,0x00,0x00,0x00,0x00,0x00,
0x00,0x00,0x00,0x00,0x00,0x00,0x00,0x00,
0x00,0x00,0x00,0x00,0x00,0x00,0x00,0x00,
0x00,0x00,0x00,0x00,0x00,0x00,0x00,0x00,
0x00,0x00,0x00,0x00,0x00,0x00,0x00,0x00,
0x00,0x00,0x00,0x00,0x00,0x00,0x00,0x00,
0x00,0x00,0x00,0x00,0x00,0x00,0x00,0x00,
0x00,0x00,0x00,0x00,0x00,0x00,0x00,0x00,
0x00,0x00,0x00,0x00,0x00,0x00,0x00,0x00,
0x00,0x00,0x00,0x00,0x00,0x00,0x00,0x00,
0x00,0x00,0x00,0x00,0x00,0x00,0x00,0x00,
0x00,0x00,0x00,0x00,0x00,0x00,0x00,0x00,
0x00,0x00,0x00,0x00,0x00,0x00,0x00,0x00,
0x00,0x00,0x00,0x00,0x00,0x00,0x00,0x00,
0x00,0x00,0x00,0x00,0x00,0x00,0x00,0x00,
0x00,0x00,0x00,0x00,0x00,0x00,0x00,0x00,
0x00,0x00,0x00,0x00,0x00,0x00,0x00,0x00,
0x00,0x00,0x00,0x00,0x00,0x00,0x00,0x00,
0x00,0x00,0x00,0x00,0x00,0x00,0x00,0x00,
0x00,0x00,0x00,0x00,0x00,0x00,0x00,0x00,
0x00,0x00,0x00,0x00,0x00,0x00,0x00,0x00,
0x00,0x00,0x00,0x00,0x00,0x00,0x00,0x00,
0x00,0x00,0x00,0x00,0x00,0x00,0x00,0x00,
0x00,0x00,0x00,0x00,0x00,0x00,0x00,0x00,
0x00,0x00,0x00,0x00,0x00,0x00,0x00,0x00,
0x48,0x40,0x9F,0xE5,0x20,0x40,0x84,0xE2,
0x04,0xF0,0xA0,0xE1,0x00,0xF0,0x20,0xE3,
0x00,0xF0,0x20,0xE3,0x00,0xF0,0x20,0xE3,
0x00,0xF0,0x20,0xE3,0x00,0xF0,0x20,0xE3,
0x00,0xF0,0x20,0xE3,0x00,0xF0,0x20,0xE3,
0x00,0xF0,0x20,0xE3,0x00,0xF0,0x20,0xE3,
0x00,0xF0,0x20,0xE3,0x00,0xF0,0x20,0xE3,
0x00,0xF0,0x20,0xE3,0x10,0x30,0x9F,0xE5,
0xCD,0x40,0xA0,0xE3,0x00,0x40,0x83,0xE5,
0x08,0xD0,0x9F,0xE5,0x02,0x00,0x00,0xEB,
0x00,0x10,0x00,0x20,0x00,0x3C,0x30,0x25,
0x00,0x40,0x03,0x20,0x00,0x00,0x00,0xEB,
0x53,0x00,0x00,0xEB,0x2C,0x00,0x8F,0xE2,
0x00,0x0C,0x90,0xE8,0x00,0xA0,0x8A,0xE0,
0x00,0xB0,0x8B,0xE0,0x01,0x70,0x4A,0xE2,
0x0B,0x00,0x5A,0xE1,0x00,0x00,0x00,0x1A,
0x4B,0x00,0x00,0xEB,0x0F,0x00,0xBA,0xE8,
0x18,0xE0,0x4F,0xE2,0x01,0x00,0x13,0xE3,
0x03,0xF0,0x47,0x10,0x13,0xFF,0x2F,0xE1,
0x3C,0x26,0x00,0x00,0x4C,0x26,0x00,0x00,
0x00,0x30,0xB0,0xE3,0x00,0x40,0xB0,0xE3,
0x00,0x50,0xB0,0xE3,0x00,0x60,0xB0,0xE3,
0x10,0x20,0x52,0xE2,0x78,0x00,0xA1,0x28,
0xFC,0xFF,0xFF,0x8A,0x82,0x2E,0xB0,0xE1,
0x30,0x00,0xA1,0x28,0x00,0x30,0x81,0x45,
0x1E,0xFF,0x2F,0xE1,0x6E,0x00,0x51,0xE3,
0x4B,0x02,0x00,0x0A,0x70,0x00,0x51,0xE3,
0xDE,0x02,0x00,0x0A,0x66,0x00,0x51,0xE3,
0xA6,0x08,0x00,0x0A,0x65,0x00,0x51,0xE3,
0xA4,0x08,0x00,0x0A,0x67,0x00,0x51,0xE3,
0xA2,0x08,0x00,0x0A,0x61,0x00,0x51,0xE3,
0x00,0x00,0xA0,0xE1,0x00,0x30,0x90,0xE5,
0x23,0x34,0xB0,0xE1,0x80,0x10,0x81,0x23,
0x69,0x00,0x51,0xE3,0x1F,0x02,0x00,0x0A,
0x64,0x00,0x51,0xE3,0x1D,0x02,0x00,0x0A,
0x75,0x00,0x51,0xE3,0x1B,0x02,0x00,0x0A,
0x6F,0x00,0x51,0xE3,0xA9,0x02,0x00,0x0A,
0x78,0x00,0x51,0xE3,0x54,0x08,0x00,0x0A,
0xE9,0x00,0x51,0xE3,0x80,0x02,0x00,0x0A,
0xE4,0x00,0x51,0xE3,0x7E,0x02,0x00,0x0A,
0xF5,0x00,0x51,0xE3,0x7C,0x02,0x00,0x0A,
0xEF,0x00,0x51,0xE3,0x4E,0x08,0x00,0x0A,
0xF8,0x00,0x51,0xE3,0x4E,0x08,0x00,0x0A,
0x00,0x30,0x90,0xE5,0xA3,0x33,0xB0,0xE1,
0x80,0x10,0x81,0x23,0x63,0x00,0x51,0xE3,
0xF2,0x04,0x00,0x0A,0x73,0x00,0x51,0xE3,
0x49,0x08,0x00,0x0A,0xE3,0x00,0x51,0xE3,
0xFC,0x04,0x00,0x0A,0xF3,0x00,0x51,0xE3,
0x47,0x08,0x00,0x0A,0x00,0x00,0xB0,0xE3,
0x1E,0xFF,0x2F,0xE1,0x1F,0xB5,0x02,0xF0,
0xF2,0xE8,0x00,0xF0,0x02,0xEF,0x04,0x00,
0x00,0x20,0x00,0x21,0x02,0xF0,0xA2,0xE8,
0x40,0x1C,0x60,0x60,0x00,0x20,0x00,0x21,
0x02,0xF0,0xC0,0xE8,0xE0,0x60,0x1F,0xBD,
0x10,0xB5,0x10,0xBD,0x34,0x05,0x00,0xEB,
0x02,0x10,0xA0,0xE1,0xF2,0xFF,0xFF,0xFA,
0x1C,0xC0,0x9F,0xE5,0x0F,0xC0,0x8C,0xE0,
0x01,0x00,0x1C,0xE3,0x0D,0xE0,0x8F,0x12,
0x0F,0xE0,0xA0,0x01,0x1C,0xFF,0x2F,0xE1,
0x01,0xC0,0x8F,0xE2,0x1C,0xFF,0x2F,0xE1,
0x01,0xF0,0x28,0xFB,0x2C,0x02,0x00,0x00,
0xF0,0xFF,0xFF,0xFA,0xBB,0x05,0x00,0xEB,
0x70,0x40,0x2D,0xE9,0x00,0x60,0xA0,0xE1,
0xA4,0x53,0x9F,0xE5,0xA4,0x23,0x9F,0xE5,
0x04,0x00,0x95,0xE5,0x20,0x40,0x82,0xE2,
0x00,0x10,0x81,0xE0,0x02,0x00,0x51,0xE1,
0x0B,0x00,0x00,0x9A,0x00,0x10,0xA0,0xE3,
0x00,0x20,0xA0,0xE1,0x04,0x00,0x52,0xE1,
0x01,0x10,0x81,0x32,0x01,0x20,0x82,0x32,
0xFB,0xFF,0xFF,0x3A,0x20,0x20,0xA0,0xE3,
0x96,0x01,0x00,0xEB,0x70,0x03,0x9F,0xE5,
0x04,0x00,0x85,0xE5,0x01,0x00,0xA0,0xE3,
0x00,0x00,0xC5,0xE5,0x00,0x00,0xA0,0xE3,
0x00,0x20,0xD6,0xE7,0x00,0x00,0x52,0xE3,
0x04,0x10,0x95,0x15,0x01,0x00,0x80,0x12,
0x01,0x20,0xC1,0x14,0x04,0x10,0x85,0x15,
0xF8,0xFF,0xFF,0x1A,0x00,0x00,0xD5,0xE5,
0x01,0x00,0x50,0xE3,0x70,0x80,0xBD,0x18,
0x0A,0x10,0xA0,0xE3,0x04,0x00,0x95,0xE5,
0x01,0x10,0xC0,0xE4,0x00,0x10,0xA0,0xE3,
0x00,0x30,0xA0,0xE1,0x04,0x00,0x85,0xE5,
0x01,0x00,0x00,0xEA,0x01,0x10,0x81,0xE2,
0x01,0x30,0x83,0xE2,0x01,0x20,0xD0,0xE7,
0x3C,0x00,0x52,0xE3,0x04,0x00,0x53,0x11,
0xF9,0xFF,0xFF,0x3A,0x20,0x20,0xA0,0xE3,
0x78,0x01,0x00,0xEB,0x04,0x00,0x95,0xE5,
0x01,0x00,0x40,0xE2,0x04,0x00,0x85,0xE5,
0x70,0x80,0xBD,0xE8,0x0F,0x00,0x2D,0xE9,
0x01,0x1C,0xA0,0xE3,0x04,0xE0,0x2D,0xE5,
0x41,0xDF,0x4D,0xE2,0x43,0x3F,0x8D,0xE2,
0x04,0x00,0x8D,0xE2,0x08,0x21,0x9D,0xE5,
0xF0,0x00,0x00,0xFA,0x00,0x10,0xA0,0xE1,
0x04,0x00,0x8D,0xE2,0xC1,0xFF,0xFF,0xEB,
0x41,0xDF,0x8D,0xE2,0x14,0xF0,0x9D,0xE4,
0x00,0x00,0x50,0xE3,0x10,0x40,0x2D,0xE9,
0xA4,0x42,0x9F,0xE5,0x02,0x0C,0x80,0x12,
0xA4,0x02,0x9F,0x05,0x04,0x00,0x84,0xE5,
0x2A,0x0E,0x8F,0xE2,0xEA,0xFF,0xFF,0xEB,
0x04,0x10,0x94,0xE5,0x0B,0x0D,0x8F,0xE2,
0x10,0x40,0xBD,0xE8,0xE6,0xFF,0xFF,0xEA,
0xF0,0x41,0x2D,0xE9,0x00,0x40,0xB0,0xE1,
0x01,0x70,0xA0,0xE1,0x00,0x50,0xA0,0xE3,
0x2E,0x00,0x00,0x0A,0xA1,0x00,0xA0,0xE3,
0xD4,0x62,0x9F,0xE5,0x00,0x00,0x86,0xE5,
0x26,0x00,0x00,0xEA,0x04,0x50,0x86,0xE5,
0x07,0x00,0xA0,0xE1,0x37,0x01,0x00,0xEB,
0x00,0x20,0xA0,0xE1,0x07,0x10,0xA0,0xE1,
0x04,0x00,0xA0,0xE1,0xFB,0x00,0x00,0xEB,
0x00,0x00,0x50,0xE3,0x1B,0x00,0x00,0x1A,
0xA3,0x00,0xA0,0xE3,0x11,0x00,0x86,0xE8,
0x07,0x00,0xA0,0xE1,0x2D,0x01,0x00,0xEB,
0x08,0x00,0x86,0xE5,0x07,0x00,0xA0,0xE1,
0x2A,0x01,0x00,0xEB,0x04,0x00,0x80,0xE0,
0x01,0x00,0x80,0xE2,0x0C,0x00,0x86,0xE5,
0x07,0x00,0xA0,0xE1,0x25,0x01,0x00,0xEB,
0x04,0x00,0x80,0xE0,0x10,0x20,0xA0,0xE3,
0x01,0x00,0x80,0xE2,0x00,0x10,0xA0,0xE3,
0xCB,0x00,0x00,0xFA,0x10,0x00,0x86,0xE5,
0xA4,0x00,0xA0,0xE3,0x00,0x00,0x86,0xE5,
0x07,0x00,0xA0,0xE1,0x1B,0x01,0x00,0xEB,
0x04,0x00,0x80,0xE0,0x10,0x20,0xA0,0xE3,
0xF0,0x41,0xBD,0xE8,0x01,0x00,0x80,0xE2,
0x00,0x10,0xA0,0xE3,0xBE,0x00,0x00,0xEA,
0x01,0x50,0x85,0xE2,0x01,0x40,0x84,0xE2,
0x00,0x00,0xD4,0xE5,0x00,0x00,0x50,0xE3,
0x01,0x0C,0x55,0x13,0xD4,0xFF,0xFF,0xBA,
0x00,0x00,0xA0,0xE3,0xF0,0x81,0xBD,0xE8,
0x30,0x40,0x2D,0xE9,0xAB,0x00,0xA0,0xE3,
0x0C,0x52,0x9F,0xE5,0x24,0xD0,0x4D,0xE2,
0x82,0x1F,0x8F,0xE2,0x00,0x00,0x85,0xE5,
0x10,0x02,0x9F,0xE5,0xC1,0xFF,0xFF,0xEB,
0x00,0x40,0xA0,0xE1,0xB3,0xFF,0xFF,0xEB,
0x00,0x12,0x9F,0xE5,0x04,0x20,0xA0,0xE1,
0x7F,0x0F,0x8F,0xE2,0xA2,0xFF,0xFF,0xEB,
0xF0,0x01,0x9F,0xE5,0x83,0x1F,0x8F,0xE2,
0x0C,0x00,0x85,0xE5,0xB7,0xFF,0xFF,0xEB,
0xE0,0x11,0x9F,0xE5,0xFF,0x20,0x00,0xE2,
0x81,0x0F,0x8F,0xE2,0x9A,0xFF,0xFF,0xEB,
0xD0,0x01,0x9F,0xE5,0x22,0x1E,0x8F,0xE2,
0xB0,0xFF,0xFF,0xEB,0x0C,0x00,0x85,0xE5,
0x00,0x40,0xA0,0xE1,0xBA,0x30,0xD0,0xE1,
0xB8,0x20,0xD0,0xE1,0x07,0x10,0xD0,0xE5,
0x06,0x00,0xD0,0xE5,0xF8,0x21,0xCD,0xE1,
0xF0,0x01,0xCD,0xE1,0x05,0x30,0xD4,0xE5,
0x04,0x20,0xD4,0xE5,0x03,0x10,0xD4,0xE5,
0x02,0x00,0xD4,0xE5,0x0F,0x00,0x8D,0xE8,
0x01,0x30,0xD4,0xE5,0x00,0x20,0xD4,0xE5,
0x04,0x10,0xA0,0xE1,0xE4,0x01,0x9F,0xE5,
0x85,0xFF,0xFF,0xEB,0x1E,0x30,0xD4,0xE5,
0x1D,0x20,0xD4,0xE5,0x1C,0x10,0xD4,0xE5,
0x1B,0x00,0xD4,0xE5,0xFC,0x00,0xCD,0xE1,
0xF4,0x21,0xCD,0xE1,0x1A,0x30,0xD4,0xE5,
0x19,0x20,0xD4,0xE5,0x18,0x10,0xD4,0xE5,
0x0E,0x00,0x8D,0xE8,0x14,0x30,0x94,0xE5,
0x10,0x20,0x94,0xE5,0x0C,0x10,0x94,0xE5,
0xAC,0x01,0x9F,0xE5,0x76,0xFF,0xFF,0xEB,
0x28,0x30,0xD4,0xE5,0x27,0x20,0xD4,0xE5,
0x26,0x10,0xD4,0xE5,0x25,0x00,0xD4,0xE5,
0xFC,0x00,0xCD,0xE1,0xF4,0x21,0xCD,0xE1,
0x24,0x30,0xD4,0xE5,0x23,0x20,0xD4,0xE5,
0x22,0x10,0xD4,0xE5,0x0E,0x00,0x8D,0xE8,
0x21,0x30,0xD4,0xE5,0x20,0x20,0xD4,0xE5,
0x1F,0x10,0xD4,0xE5,0x74,0x01,0x9F,0xE5,
0x67,0xFF,0xFF,0xEB,0x33,0x30,0xD4,0xE5,
0x32,0x20,0xD4,0xE5,0x31,0x10,0xD4,0xE5,
0x30,0x00,0xD4,0xE5,0xFC,0x00,0xCD,0xE1,
0xF4,0x21,0xCD,0xE1,0x2F,0x30,0xD4,0xE5,
0x2E,0x20,0xD4,0xE5,0xBC,0x12,0xD4,0xE1,
0x0E,0x00,0x8D,0xE8,0x2B,0x30,0xD4,0xE5,
0x2A,0x20,0xD4,0xE5,0x29,0x10,0xD4,0xE5,
0x3C,0x01,0x9F,0xE5,0x58,0xFF,0xFF,0xEB,
0x44,0x31,0x94,0xE5,0x46,0x0F,0x84,0xE2,
0x38,0x11,0x94,0xE5,0x40,0x21,0x94,0xE5,
0xFC,0x00,0xCD,0xE1,0xF4,0x21,0xCD,0xE1,
0x42,0x3F,0x84,0xE2,0x3C,0x10,0x94,0xE5,
0xE8,0x20,0x84,0xE2,0x0E,0x00,0x8D,0xE8,
0x38,0x30,0x94,0xE5,0x35,0x20,0xD4,0xE5,
0x34,0x10,0xD4,0xE5,0x04,0x01,0x9F,0xE5,
0x49,0xFF,0xFF,0xEB,0xDE,0x00,0xA0,0xE3,
0x10,0x00,0x85,0xE4,0x00,0x40,0x85,0xE5,
0xFE,0xFF,0xFF,0xEA,0x10,0x38,0x00,0x20,
0xE0,0x0F,0x02,0x20,0x00,0x00,0x02,0x20,
0x3D,0x3D,0x3D,0x3D,0x3D,0x3D,0x3D,0x3D,
0x3D,0x3D,0x3D,0x3D,0x3D,0x3D,0x3D,0x3D,
0x3D,0x3D,0x3D,0x3D,0x3D,0x3D,0x3D,0x3D,
0x3D,0x3D,0x3D,0x3D,0x3D,0x3D,0x3D,0x3D,
0x3D,0x3D,0x3D,0x3D,0x3D,0x3D,0x3D,0x3D,
0x0A,0x00,0x00,0x00,0x62,0x6F,0x6F,0x74,
0x6C,0x6F,0x61,0x64,0x65,0x72,0x20,0x43,
0x75,0x72,0x72,0x65,0x6E,0x74,0x20,0x70,
0x6F,0x69,0x6E,0x74,0x65,0x72,0x20,0x74,
0x6F,0x20,0x70,0x44,0x65,0x62,0x75,0x67,
0x4D,0x65,0x6D,0x20,0x61,0x64,0x64,0x72,
0x65,0x73,0x73,0x20,0x25,0x6C,0x78,0x0A,
0x00,0x00,0x00,0x00,0x00,0x3C,0x30,0x25,
0x64,0x65,0x62,0x75,0x67,0x5F,0x6D,0x65,
0x6D,0x5F,0x74,0x61,0x69,0x6C,0x00,0x00,
0x00,0xD0,0x02,0x20,0x63,0x68,0x75,0x6E,
0x20,0x62,0x6F,0x6F,0x74,0x20,0x70,0x61,
0x72,0x61,0x6D,0x3A,0x25,0x78,0x2C,0x20,
0x76,0x3D,0x30,0x78,0x25,0x78,0x0A,0x00,
0x62,0x6F,0x6F,0x74,0x6D,0x6F,0x64,0x65,
0x00,0x00,0x00,0x00,0x63,0x68,0x75,0x6E,
0x20,0x62,0x6F,0x6F,0x74,0x20,0x70,0x61,
0x72,0x61,0x6D,0x3A,0x25,0x78,0x2C,0x20,
0x62,0x6F,0x74,0x6F,0x6D,0x6F,0x64,0x65,
0x3D,0x3D,0x3D,0x30,0x78,0x25,0x78,0x0A,
0x00,0x00,0x00,0x00,0x75,0x73,0x62,0x73,
0x74,0x72,0x75,0x63,0x74,0x00,0x00,0x00,
0x84,0x33,0x00,0x20,0x10,0x34,0x00,0x20,
0x8C,0x34,0x00,0x20,0x08,0x35,0x00,0x20,
0x84,0x35,0x00,0x20,0x1E,0xFF,0x2F,0xE1,
0x7C,0xB5,0x0C,0x00,0x15,0x00,0x00,0x29,
0x00,0x90,0x01,0xD0,0x00,0x19,0x40,0x1E,
0x6A,0x46,0x07,0x49,0x79,0x44,0x01,0x90,
0x28,0x00,0x00,0xF0,0xC0,0xF9,0x05,0x00,
0x00,0x2C,0x03,0xD0,0x69,0x46,0x00,0x20,
0x00,0xF0,0xCC,0xF9,0x28,0x00,0x7C,0xBD,
0xB7,0x03,0x00,0x00,0x01,0xC0,0x8F,0xE2,
0x1C,0xFF,0x2F,0xE1,0xF7,0xB5,0x82,0xB0,
0x0F,0x00,0x02,0x9C,0x00,0x26,0x00,0xF0,
0xE6,0xE8,0x01,0x90,0x00,0x68,0x00,0x90,
0x25,0x78,0x64,0x1C,0x00,0x2D,0x05,0xD0,
0x00,0xF0,0xD2,0xE8,0x00,0x68,0x40,0x5D,
0xC0,0x07,0xF5,0xD1,0x2B,0x2D,0x06,0xD0,
0x2D,0x2D,0x03,0xD1,0x01,0x20,0x80,0x02,
0x06,0x43,0x00,0xE0,0x64,0x1E,0x01,0x98,
0x00,0x21,0x01,0x60,0x04,0x9A,0x39,0x00,
0x20,0x00,0x00,0xF0,0xC1,0xFB,0x01,0x00,
0x00,0x2F,0x04,0xD0,0x38,0x68,0xA0,0x42,
0x01,0xD1,0x02,0x98,0x38,0x60,0x01,0x98,
0x00,0x68,0x02,0x28,0x05,0xD0,0x01,0x98,
0x00,0x9A,0x02,0x60,0x48,0x42,0x72,0x05,
0x00,0xD4,0x08,0x00,0x05,0xB0,0xF0,0xBD,
0x01,0x30,0x80,0xE1,0x10,0x40,0x2D,0xE9,
0x03,0x00,0x13,0xE3,0x1E,0x00,0x00,0x1A,
0xC4,0x40,0x9F,0xE5,0x04,0x00,0x52,0xE3,
0x1B,0x00,0x00,0x3A,0x04,0x30,0x90,0xE4,
0x04,0xC0,0x91,0xE4,0x04,0x20,0x42,0xE2,
0xF3,0xEF,0x64,0xE6,0x00,0x00,0x5E,0xE3,
0x05,0x00,0x00,0x1A,0x0C,0x00,0x53,0xE1,
0xF5,0xFF,0xFF,0x0A,0x33,0x0F,0xBF,0xE6,
0x3C,0x1F,0xBF,0xE6,0x01,0x00,0x40,0xE0,
0x10,0x80,0xBD,0xE8,0xFF,0x00,0x03,0xE2,
0xFF,0x10,0x0C,0xE2,0x01,0x00,0x40,0xE0,
0x0E,0x1C,0x90,0xE1,0x73,0x00,0xFF,0x06,
0x7C,0x10,0xFF,0x06,0x01,0x00,0x40,0x00,
0x0E,0x18,0x90,0x01,0xFF,0x14,0xC3,0x03,
0xFF,0x04,0xCC,0x03,0x00,0x00,0x41,0x00,
0x0E,0x14,0x90,0x01,0x10,0x80,0xBD,0x18,
0x23,0x0C,0xA0,0xE1,0x2C,0x0C,0x40,0xE0,
0x10,0x80,0xBD,0xE8,0x00,0x00,0x52,0xE3,
0x00,0x00,0xA0,0x03,0x10,0x80,0xBD,0x08,
0x01,0x30,0xD0,0xE4,0x01,0xC0,0xD1,0xE4,
0x00,0x00,0x53,0xE3,0x0A,0x00,0x00,0x0A,
0x0C,0x00,0x53,0xE1,0x08,0x00,0x00,0x1A,
0x01,0x20,0x52,0xE2,0x01,0x30,0xD0,0x14,
0x01,0xC0,0xD1,0x14,0x00,0x00,0x53,0x13,
0x03,0x00,0x00,0x0A,0x0C,0x00,0x53,0xE1,
0x01,0x00,0x00,0x1A,0x01,0x20,0x52,0xE2,
0xF0,0xFF,0xFF,0x1A,0x0C,0x00,0x43,0xE0,
0x10,0x80,0xBD,0xE8,0x01,0x01,0x01,0x01,
0x01,0x20,0x80,0xE2,0x03,0x00,0x00,0xEA,
0x01,0x10,0xD0,0xE4,0x00,0x00,0x51,0xE3,
0x02,0x00,0x40,0x00,0x1E,0xFF,0x2F,0x01,
0x03,0x00,0x10,0xE3,0xF9,0xFF,0xFF,0x1A,
0x34,0x30,0x9F,0xE5,0x04,0x10,0x90,0xE4,
0xF1,0x1F,0x63,0xE6,0x00,0x00,0x51,0xE3,
0xFB,0xFF,0xFF,0x0A,0x02,0x00,0x40,0xE0,
0x01,0x2C,0xB0,0xE1,0x03,0x00,0x40,0x12,
0x1E,0xFF,0x2F,0x11,0x01,0x28,0xB0,0xE1,
0x02,0x00,0x40,0x12,0x1E,0xFF,0x2F,0x11,
0x01,0x14,0xB0,0xE1,0x01,0x00,0x40,0x12,
0x1E,0xFF,0x2F,0xE1,0x01,0x01,0x01,0x01,
0xFF,0x30,0x02,0xE2,0x03,0x24,0x83,0xE1,
0x02,0x28,0x82,0xE1,0xAB,0x01,0x00,0xEA,
0x10,0x40,0x2D,0xE9,0xBB,0x01,0x00,0xEB,
0x04,0x00,0x90,0xE2,0x10,0x80,0xBD,0xE8,
0x34,0x1A,0x00,0x00,0x04,0x00,0x9F,0xE5,
0x1E,0xFF,0x2F,0xE1,0x1E,0xFF,0x2F,0xE1,
0x18,0x38,0x00,0x20,0x70,0xB5,0x85,0x69,
0x04,0x00,0x00,0x68,0x30,0x26,0xC1,0x06,
0x00,0xD4,0x20,0x26,0xC0,0x07,0x09,0xD1,
0x06,0xE0,0x62,0x68,0xA1,0x68,0x30,0x00,
0x90,0x47,0x20,0x6A,0x40,0x1C,0x20,0x62,
0x6D,0x1E,0xF6,0xD5,0x70,0xBD,0x70,0xB5,
0x85,0x69,0x04,0x00,0x00,0x68,0xC0,0x07,
0x09,0xD0,0x06,0xE0,0x62,0x68,0xA1,0x68,
0x20,0x20,0x90,0x47,0x20,0x6A,0x40,0x1C,
0x20,0x62,0x6D,0x1E,0xF6,0xD5,0x70,0xBD,
0x09,0x68,0x4A,0x05,0x02,0xD5,0x00,0x06,
0x00,0x16,0x70,0x47,0xC9,0x05,0xFC,0xD5,
0x00,0x04,0x00,0x14,0x70,0x47,0x09,0x68,
0x4A,0x05,0x02,0xD5,0x00,0x06,0x00,0x0E,
0x70,0x47,0xC9,0x05,0xFC,0xD5,0x00,0x04,
0x00,0x0C,0x70,0x47,0x70,0xB5,0x05,0x00,
0x0C,0x00,0x01,0x2A,0x01,0xD1,0x01,0x20,
0x0B,0xE0,0x28,0x68,0x80,0x06,0x00,0xD5,
0xEA,0x69,0x00,0x20,0x00,0xE0,0x40,0x1C,
0x90,0x42,0x02,0xD2,0x21,0x5C,0x00,0x29,
0xF9,0xD1,0xA9,0x69,0x26,0x18,0x09,0x1A,
0xA9,0x61,0x29,0x6A,0x09,0x18,0x28,0x00,
0x29,0x62,0xFF,0xF7,0xA7,0xFF,0x04,0xE0,
0x6A,0x68,0x20,0x78,0xA9,0x68,0x64,0x1C,
0x90,0x47,0xB4,0x42,0xF8,0xD3,0x28,0x00,
0xFF,0xF7,0xB1,0xFF,0x70,0xBD,0x00,0x00,
0x01,0xC0,0x8F,0xE2,0x1C,0xFF,0x2F,0xE1,
0xF7,0xB5,0x00,0x25,0x75,0x29,0x10,0x68,
0x00,0x99,0x14,0xA6,0x11,0xD0,0xFF,0xF7,
0xB3,0xFF,0x00,0x28,0x02,0xDA,0x40,0x42,
0x11,0xA6,0x08,0xE0,0x00,0x99,0x09,0x68,
0x8A,0x07,0x01,0xD5,0x0F,0xA6,0x02,0xE0,
0x49,0x07,0x04,0xD5,0x0E,0xA6,0x01,0x25,
0x01,0xE0,0xFF,0xF7,0xAC,0xFF,0x00,0x9F,
0x00,0x24,0x24,0x37,0x04,0xE0,0x00,0xF0,
0x44,0xEE,0x30,0x31,0x39,0x55,0x64,0x1C,
0x00,0x28,0xF8,0xD1,0x00,0x98,0x2B,0x00,
0x32,0x00,0x21,0x00,0x00,0xF0,0x28,0xFB,
0xFE,0xBD,0x00,0x00,0x00,0x00,0x00,0x00,
0x2D,0x00,0x00,0x00,0x2B,0x00,0x00,0x00,
0x20,0x00,0x00,0x00,0x01,0xC0,0x8F,0xE2,
0x1C,0xFF,0x2F,0xE1,0x11,0x68,0x02,0x68,
0x00,0x6A,0x53,0x05,0x01,0xD5,0x08,0x70,
0x0A,0xE0,0xD3,0x05,0x01,0xD5,0x08,0x80,
0x06,0xE0,0x13,0x06,0x02,0xD5,0xC2,0x17,
0x05,0xC1,0x01,0xE0,0x52,0x06,0x08,0x60,
0x01,0x20,0x70,0x47,0x01,0x69,0x4A,0x1C,
0x02,0x61,0x08,0x78,0x70,0x47,0x10,0xB5,
0x90,0xB0,0x0C,0x00,0x03,0x92,0x00,0x22,
0x06,0x92,0x05,0x4A,0x05,0x90,0x19,0x00,
0x7A,0x44,0x01,0xA8,0x02,0x94,0x04,0x92,
0x00,0xF0,0x5C,0xF9,0x10,0xB0,0x10,0xBD,
0xE1,0xFF,0xFF,0xFF,0x0A,0x68,0x10,0x70,
0x52,0x1C,0x0A,0x60,0x70,0x47,0x4B,0x68,
0x0A,0x68,0x9A,0x42,0x02,0xD2,0x53,0x1C,
0x0B,0x60,0x10,0x70,0x70,0x47,0x00,0x00,
0xF7,0xB5,0x04,0x00,0x15,0x00,0x2C,0x48,
0x86,0xB0,0x78,0x44,0x00,0x27,0x03,0xC8,
0x3E,0x00,0x03,0x90,0x04,0x91,0x11,0xE0,
0x07,0x98,0x71,0x00,0x03,0xAA,0x41,0x5A,
0x01,0xA8,0x00,0xF0,0x91,0xFD,0x41,0x1C,
0x07,0xD0,0x21,0x68,0x89,0x06,0x03,0xD5,
0xE2,0x69,0x39,0x18,0x91,0x42,0x0E,0xD8,
0x3F,0x18,0x76,0x1C,0x20,0x68,0x80,0x06,
0x02,0xD5,0xE0,0x69,0xB8,0x42,0x06,0xDD,
0xAE,0x42,0xE5,0xDB,0x07,0x98,0x71,0x00,
0x40,0x5A,0x00,0x28,0xE0,0xD1,0xA0,0x69,
0xC0,0x1B,0xA0,0x61,0x20,0x00,0xFF,0xF7,
0xF1,0xFE,0x15,0x48,0x78,0x44,0x5A,0x38,
0x03,0xC8,0x03,0x90,0x00,0x20,0x04,0x91,
0x16,0xE0,0x41,0x00,0x07,0x98,0x03,0xAA,
0x41,0x5A,0x01,0xA8,0x00,0xF0,0x64,0xFD,
0x00,0x90,0x40,0x1C,0x0A,0xD0,0x00,0x25,
0x05,0xE0,0x62,0x68,0x01,0xA8,0xA1,0x68,
0x40,0x5D,0x90,0x47,0x6D,0x1C,0x00,0x98,
0x85,0x42,0xF6,0xD3,0x05,0x98,0x40,0x1C,
0xB0,0x42,0x05,0x90,0xE5,0xDB,0x20,0x6A,
0xC0,0x19,0x20,0x62,0x20,0x00,0xFF,0xF7,
0xDE,0xFE,0x09,0xB0,0xF0,0xBD,0x00,0x00,
0x6E,0x1B,0x00,0x00,0x01,0xC0,0x8F,0xE2,
0x1C,0xFF,0x2F,0xE1,0xF7,0xB5,0xD2,0x1D,
0x82,0xB0,0xD0,0x08,0x00,0x25,0xC0,0x00,
0xF5,0x29,0xC0,0xC8,0x1A,0xA0,0x01,0x90,
0x14,0xD0,0x00,0x23,0x39,0x00,0xF0,0x1A,
0x99,0x41,0x04,0xDA,0x76,0x42,0x92,0x41,
0xD7,0x1B,0x16,0xA0,0x08,0xE0,0x02,0x98,
0x00,0x68,0x81,0x07,0x01,0xD5,0x14,0xA0,
0x02,0xE0,0x40,0x07,0x02,0xD5,0x13,0xA0,
0x01,0x25,0x01,0x90,0x02,0x98,0x00,0x24,
0x24,0x30,0x00,0x90,0x09,0xE0,0x39,0x00,
0x30,0x00,0x00,0xF0,0x0A,0xEA,0x00,0x9B,
0x30,0x32,0x06,0x00,0x1A,0x55,0x64,0x1C,
0x0F,0x00,0x00,0x23,0x39,0x00,0x30,0x00,
0x59,0x40,0x58,0x40,0x08,0x43,0xEE,0xD1,
0x01,0x9A,0x02,0x98,0x2B,0x00,0x21,0x00,
0x00,0xF0,0x42,0xFA,0x05,0xB0,0xF0,0xBD,
0x00,0x00,0x00,0x00,0x2D,0x00,0x00,0x00,
0x2B,0x00,0x00,0x00,0x20,0x00,0x00,0x00,
0x57,0xC0,0x8F,0xE2,0x1C,0xFF,0x2F,0xE1,
0xF8,0xB5,0x07,0x00,0x15,0x00,0x1E,0x00,
0x00,0x24,0x24,0x30,0x00,0x90,0x09,0xE0,
0x00,0x99,0x68,0x07,0xED,0x08,0x40,0x0F,
0x30,0x30,0x08,0x55,0x70,0x07,0x64,0x1C,
0x05,0x43,0xF6,0x08,0x00,0x23,0x31,0x00,
0x28,0x00,0x59,0x40,0x58,0x40,0x08,0x43,
0xEE,0xD1,0x38,0x68,0x10,0xA2,0x01,0x07,
0x08,0xD5,0x20,0x21,0x08,0x40,0x20,0x43,
0x04,0xD0,0xF8,0x69,0x01,0x23,0x0D,0xA2,
0x40,0x1E,0xF8,0x61,0x21,0x00,0x38,0x00,
0x00,0xF0,0x0A,0xFA,0xF8,0xBD,0x10,0xB5,
0x04,0x00,0x10,0x68,0x21,0x00,0xFF,0xF7,
0x76,0xFE,0x02,0x00,0x00,0x23,0x20,0x00,
0xFF,0xF7,0xCA,0xFF,0x10,0xBD,0xD2,0x1D,
0xD1,0x08,0xC9,0x00,0x0C,0xC9,0xC3,0xE7,
0x00,0x00,0x00,0x00,0x30,0x00,0x00,0x00,
0x9B,0xC0,0x8F,0xE2,0x1C,0xFF,0x2F,0xE1,
0xF0,0xB5,0x15,0x00,0x1F,0xB4,0x82,0xB0,
0x1E,0x00,0x02,0x98,0x00,0x68,0x00,0x05,
0x02,0xD5,0x27,0x4F,0x7F,0x44,0x02,0xE0,
0x25,0x4F,0x7F,0x44,0x0E,0x37,0x02,0x98,
0x00,0x24,0x24,0x30,0x01,0x90,0x09,0xE0,
0x28,0x07,0x01,0x99,0x00,0x0F,0x2D,0x09,
0x38,0x5C,0x08,0x55,0x30,0x07,0x64,0x1C,
0x05,0x43,0x36,0x09,0x00,0x23,0x31,0x00,
0x28,0x00,0x59,0x40,0x58,0x40,0x08,0x43,
0xEE,0xD1,0x02,0x98,0x3A,0x00,0x00,0x68,
0x00,0x07,0x09,0xD5,0x03,0x98,0x70,0x28,
0x02,0xD1,0x10,0x32,0x01,0x23,0x03,0xE0,
0x00,0x2C,0x01,0xD0,0x11,0x32,0x02,0x23,
0x02,0x98,0x21,0x00,0x00,0xF0,0xB8,0xF9,
0x07,0xB0,0xF0,0xBD,0x70,0xB5,0x04,0x00,
0x0D,0x00,0x10,0x68,0x21,0x00,0xFF,0xF7,
0x22,0xFE,0x02,0x00,0x00,0x23,0x29,0x00,
0x20,0x00,0xFF,0xF7,0xB9,0xFF,0x70,0xBD,
0xD2,0x1D,0xD3,0x08,0xDB,0x00,0x0C,0xCB,
0xB2,0xE7,0x30,0xB4,0x03,0x68,0x20,0x24,
0x12,0x68,0x23,0x43,0x03,0x60,0x08,0x23,
0xC3,0x61,0x30,0xBC,0x00,0x23,0xA7,0xE7,
0x8C,0x19,0x00,0x00,0xF3,0xB5,0x05,0x00,
0x00,0x20,0x81,0xB0,0xBE,0xE0,0xE9,0x68,
0x28,0x00,0x88,0x47,0x00,0x28,0x7E,0xD0,
0x25,0x28,0x02,0xD0,0x6A,0x68,0xA9,0x68,
0xB1,0xE0,0x5C,0x4F,0x00,0x26,0x7F,0x44,
0xE9,0x68,0x28,0x00,0x88,0x47,0x04,0x00,
0x20,0x28,0x08,0xDB,0x31,0x2C,0x06,0xD2,
0x38,0x19,0x20,0x38,0x00,0x78,0x00,0x28,
0x01,0xD0,0x06,0x43,0xF0,0xE7,0xB0,0x07,
0x01,0xD5,0x04,0x20,0x86,0x43,0x00,0x20,
0xE8,0x61,0x07,0x00,0xA8,0x61,0x2A,0x2C,
0x11,0xD1,0x02,0x98,0xBA,0x00,0x52,0x19,
0x02,0xC8,0x91,0x61,0x02,0x90,0xE9,0x68,
0x28,0x00,0x88,0x47,0x04,0x00,0x01,0x2F,
0x26,0xD1,0xE8,0x69,0x00,0x28,0x2E,0xDA,
0x20,0x20,0x86,0x43,0x2B,0xE0,0x20,0x00,
0x30,0x38,0x01,0x22,0x01,0x00,0x0A,0x28,
0x18,0xD2,0x00,0x2A,0x16,0xD0,0xB8,0x00,
0x40,0x19,0x00,0x90,0x81,0x61,0x07,0xE0,
0x00,0x98,0x0A,0x21,0x80,0x69,0x48,0x43,
0x00,0x99,0x00,0x19,0x30,0x38,0x88,0x61,
0xE9,0x68,0x28,0x00,0x88,0x47,0x04,0x00,
0x01,0x21,0x30,0x38,0x0A,0x28,0x01,0xD2,
0x00,0x29,0xED,0xD1,0x01,0x2F,0x0A,0xD0,
0x2E,0x2C,0x08,0xD1,0xE9,0x68,0x28,0x00,
0x88,0x47,0x04,0x00,0x20,0x20,0x06,0x43,
0x7F,0x1C,0x02,0x2F,0xBF,0xDB,0xA8,0x69,
0x00,0x28,0x03,0xDA,0x40,0x42,0xA8,0x61,
0x01,0x20,0x06,0x43,0xF0,0x07,0x01,0xD0,
0x10,0x20,0x86,0x43,0x6C,0x2C,0x01,0xD0,
0x68,0x2C,0x17,0xD1,0xE9,0x68,0x27,0x00,
0x28,0x00,0x88,0x47,0x04,0x00,0xB8,0x42,
0x0A,0xD1,0x80,0x20,0x6C,0x2F,0x00,0xD0,
0xC0,0x00,0xE9,0x68,0x06,0x43,0x28,0x00,
0x88,0x47,0x04,0x00,0x16,0xE0,0x3B,0xE0,
0x40,0x20,0x6C,0x2F,0x00,0xD0,0x80,0x00,
0x06,0x43,0x0F,0xE0,0x4C,0x2C,0x05,0xD0,
0x6A,0x2C,0x03,0xD0,0x74,0x2C,0x01,0xD0,
0x7A,0x2C,0x07,0xD1,0x00,0x20,0x4C,0x2C,
0xE7,0xD0,0x80,0x20,0x6A,0x2C,0xE4,0xD0,
0x00,0x20,0xE2,0xE7,0x00,0x2C,0x23,0xD0,
0x20,0x00,0x41,0x38,0x19,0x28,0x03,0xD8,
0x01,0x20,0xC0,0x02,0x06,0x43,0x20,0x34,
0x2E,0x60,0x02,0x9A,0x21,0x00,0x28,0x00,
0x16,0x00,0xFF,0xF7,0x2C,0xE9,0x00,0x28,
0x0A,0xD0,0x01,0x28,0x02,0xD1,0x36,0x1D,
0x02,0x96,0x4C,0xE7,0xF6,0x1D,0xF0,0x08,
0xC0,0x00,0x08,0x30,0x02,0x90,0x46,0xE7,
0x6A,0x68,0xA9,0x68,0x20,0x00,0x90,0x47,
0x28,0x6A,0x40,0x1C,0x28,0x62,0x3E,0xE7,
0x28,0x6A,0xFE,0xBD,0xF2,0x18,0x00,0x00,
0xF7,0xB5,0x82,0xB0,0x00,0x27,0x02,0x9C,
0x15,0x00,0x20,0x78,0x64,0x1C,0x01,0x97,
0x30,0x28,0x13,0xD1,0x20,0x78,0x01,0x27,
0x64,0x1C,0x78,0x28,0x01,0xD0,0x58,0x28,
0x08,0xD1,0x00,0x2D,0x01,0xD0,0x10,0x2D,
0x0B,0xD1,0x20,0x78,0x00,0x27,0x10,0x25,
0x64,0x1C,0x06,0xE0,0x00,0x2D,0x04,0xD1,
0x08,0x25,0x02,0xE0,0x00,0x2D,0x00,0xD1,
0x0A,0x25,0x00,0x26,0x00,0x96,0x11,0xE0,
0x00,0x99,0x01,0x27,0x69,0x43,0x08,0x18,
0x29,0x00,0x02,0x0C,0x71,0x43,0x00,0x04,
0x00,0x0C,0x00,0x90,0x8E,0x18,0x38,0x04,
0x86,0x42,0x01,0xD3,0x01,0x20,0x01,0x90,
0x20,0x78,0x64,0x1C,0x29,0x00,0x00,0xF0,
0x46,0xFB,0x00,0x28,0xE8,0xDA,0x03,0x98,
0x00,0x28,0x04,0xD0,0x64,0x1E,0x00,0x2F,
0x00,0xD1,0x02,0x9C,0x04,0x60,0x01,0x98,
0x00,0x28,0x06,0xD0,0xFF,0xF7,0xBE,0xEC,
0x02,0x21,0x01,0x60,0xC8,0x1E,0x05,0xB0,
0xF0,0xBD,0x00,0x99,0x30,0x04,0x08,0x43,
0xF9,0xE7,0x00,0x00,0x00,0x20,0xA0,0xE3,
0x04,0x00,0x51,0xE3,0x07,0x00,0x00,0x3A,
0x03,0xC0,0x10,0xE2,0xAB,0x01,0x00,0x0A,
0x04,0xC0,0x6C,0xE2,0x02,0x00,0x5C,0xE3,
0x01,0x20,0xC0,0x14,0x0C,0x10,0x41,0xE0,
0xB2,0x20,0xC0,0xA0,0xA5,0x01,0x00,0xEA,
0x81,0xCF,0xB0,0xE1,0x01,0x20,0xC0,0x24,
0x01,0x20,0xC0,0x24,0x01,0x20,0xC0,0x44,
0x1E,0xFF,0x2F,0xE1,0x00,0x00,0x9F,0xE5,
0x1E,0xFF,0x2F,0xE1,0x18,0x38,0x00,0x20,
0x04,0x00,0x9F,0xE5,0x1E,0xFF,0x2F,0xE1,
0x1E,0xFF,0x2F,0xE1,0x38,0x38,0x00,0x20,
0x30,0x40,0x2D,0xE9,0x0A,0x20,0x50,0xE2,
0x20,0xE1,0xA0,0xE1,0x00,0x30,0xD1,0xE2,
0x01,0xEF,0x8E,0xE1,0x0E,0x00,0x50,0xE0,
0x21,0x11,0xC1,0xE0,0x20,0xE2,0xA0,0xE1,
0x01,0xEE,0x8E,0xE1,0x0E,0x00,0x90,0xE0,
0x21,0x12,0xA1,0xE0,0x20,0xE4,0xA0,0xE1,
0x01,0xEC,0x8E,0xE1,0x0E,0x00,0x90,0xE0,
0x21,0x14,0xA1,0xE0,0x20,0xE8,0xA0,0xE1,
0x01,0xE8,0x8E,0xE1,0x0E,0x00,0x90,0xE0,
0x21,0x18,0xA1,0xE0,0x01,0x00,0x90,0xE0,
0x00,0x10,0xA1,0xE2,0xA0,0x01,0xA0,0xE1,
0x81,0x0E,0x80,0xE1,0xA1,0x11,0xA0,0xE1,
0x00,0x51,0x90,0xE0,0x01,0x41,0xA0,0xE1,
0x20,0x4F,0x84,0xE1,0x01,0x40,0xA4,0xE0,
0x05,0x50,0x95,0xE0,0x04,0x40,0xA4,0xE0,
0x05,0x20,0x52,0xE0,0x04,0x30,0xD3,0xE0,
0x00,0x30,0xA0,0xE3,0x0A,0x20,0x82,0x42,
0x30,0x80,0xBD,0x48,0x01,0x00,0x90,0xE2,
0x00,0x10,0xA1,0xE2,0x30,0x80,0xBD,0xE8,
0xFF,0xB5,0x04,0x00,0x81,0xB0,0x24,0x30,
0x0D,0x00,0x00,0x90,0x21,0x68,0x88,0x06,
0x04,0xD5,0x10,0x22,0xE0,0x69,0x91,0x43,
0x21,0x60,0x00,0xE0,0x01,0x20,0x00,0x27,
0xA8,0x42,0x00,0xDD,0x47,0x1B,0x04,0x98,
0xA1,0x69,0x7A,0x19,0x10,0x18,0x08,0x1A,
0xA0,0x61,0x20,0x68,0xC0,0x06,0x02,0xD4,
0x20,0x00,0xFF,0xF7,0x23,0xFC,0x00,0x26,
0x08,0xE0,0x03,0x98,0x62,0x68,0xA1,0x68,
0x80,0x5D,0x90,0x47,0x20,0x6A,0x40,0x1C,
0x76,0x1C,0x20,0x62,0x04,0x98,0x86,0x42,
0xF3,0xDB,0x20,0x68,0xC0,0x06,0x0A,0xD5,
0x20,0x00,0xFF,0xF7,0x0F,0xFC,0x06,0xE0,
0x62,0x68,0xA1,0x68,0x30,0x20,0x90,0x47,
0x20,0x6A,0x40,0x1C,0x20,0x62,0x38,0x00,
0x7F,0x1E,0x00,0x28,0xF4,0xDC,0x07,0xE0,
0x00,0x98,0x62,0x68,0xA1,0x68,0x40,0x5D,
0x90,0x47,0x20,0x6A,0x40,0x1C,0x20,0x62,
0x28,0x00,0x6D,0x1E,0x00,0x28,0xF3,0xDC,
0x20,0x00,0xFF,0xF7,0x08,0xFC,0x21,0x68,
0x02,0x20,0x09,0x06,0x00,0xD4,0x01,0x20,
0x05,0xB0,0xF0,0xBD,0x70,0x47,0xFF,0xB5,
0x0C,0x00,0x8F,0xB0,0x50,0x68,0x11,0x68,
0x09,0x90,0x46,0x00,0x08,0x91,0x75,0x0D,
0x00,0xD1,0x6D,0x1E,0x00,0x21,0x08,0x00,
0x01,0xF0,0x36,0xE9,0x03,0x21,0x09,0x9A,
0x89,0x05,0x08,0x40,0x00,0x2A,0x03,0xDA,
0x82,0x00,0x80,0x18,0x40,0x08,0x08,0x40,
0x80,0x0D,0x01,0x28,0x0A,0x90,0x02,0xDD,
0x00,0x20,0xC0,0x43,0x0A,0x90,0x08,0x98,
0x06,0x43,0x19,0xD1,0x18,0x98,0x01,0x28,
0x03,0xD1,0x12,0x99,0x00,0x20,0xCA,0x43,
0x09,0xE0,0x00,0x20,0x30,0x21,0x01,0xE0,
0x21,0x54,0x40,0x1C,0x12,0x9A,0x90,0x42,
0xFA,0xDB,0x10,0x00,0x00,0x22,0x18,0x9B,
0x00,0x21,0x21,0x54,0x0F,0x99,0x8B,0x60,
0x0A,0x60,0x48,0x60,0x13,0xB0,0xF0,0xBD,
0xF0,0x48,0xF1,0x49,0x28,0x18,0x48,0x43,
0x00,0x14,0x0C,0x90,0x0A,0x98,0x40,0x42,
0x0D,0x90,0x18,0x98,0x00,0x28,0x04,0xD1,
0x12,0x99,0x0C,0x98,0x45,0x1A,0x6D,0x1C,
0x01,0xE0,0x12,0x98,0x45,0x42,0x0D,0x9A,
0x00,0x2D,0x00,0xDC,0x0A,0x9A,0x29,0x1E,
0x00,0xDA,0x69,0x42,0x03,0xA8,0x00,0xF0,
0xE7,0xFA,0x08,0x99,0x09,0x98,0x00,0xF0,
0x7C,0xEC,0x01,0x91,0x01,0x00,0xE1,0x48,
0x02,0x92,0x09,0x18,0x00,0x2D,0x00,0x91,
0x0A,0xDD,0xDE,0x49,0x03,0x98,0x0A,0x9A,
0x49,0x42,0x40,0x18,0x03,0xA9,0x03,0x90,
0x68,0x46,0x00,0xF0,0xF6,0xEE,0x07,0xE0,
0x03,0x99,0x0A,0x9A,0x08,0x18,0x03,0xA9,
0x03,0x90,0x68,0x46,0x00,0xF0,0x04,0xEF,
0x00,0x90,0x00,0x04,0x02,0x92,0x01,0x91,
0x03,0xD0,0x00,0x25,0xED,0x43,0x6E,0x08,
0x01,0xE0,0x0E,0x00,0x15,0x00,0x18,0x98,
0x00,0x28,0x26,0xD1,0x12,0x9F,0x07,0xE0,
0x31,0x00,0x28,0x00,0xFF,0xF7,0xD0,0xEE,
0x30,0x32,0x05,0x00,0x0E,0x00,0xE2,0x55,
0x7F,0x1E,0xF5,0xD5,0x12,0x98,0x00,0x23,
0x31,0x00,0x07,0x90,0x28,0x00,0x01,0x27,
0x59,0x40,0x58,0x40,0x08,0x43,0x03,0xD0,
0x0C,0x98,0x00,0x27,0x40,0x1C,0x07,0xE0,
0x20,0x78,0x30,0x28,0x01,0xD0,0x0C,0x98,
0x03,0xE0,0x0C,0x98,0x00,0x27,0x40,0x1E,
0x0C,0x90,0x00,0x2F,0x06,0x90,0x98,0xD0,
0x35,0xE0,0x00,0x20,0x07,0x00,0x0B,0x90,
0x0A,0xE0,0x11,0x2F,0x0F,0xDA,0x31,0x00,
0x28,0x00,0xFF,0xF7,0xA6,0xEE,0x30,0x32,
0x05,0x00,0x0E,0x00,0xE2,0x55,0x7F,0x1C,
0x00,0x23,0x31,0x00,0x28,0x00,0x59,0x40,
0x58,0x40,0x08,0x43,0xED,0xD1,0x00,0x23,
0x31,0x00,0x28,0x00,0x59,0x40,0x58,0x40,
0x08,0x43,0x10,0xD1,0x00,0x21,0x38,0x00,
0x04,0xE0,0x23,0x5C,0x62,0x5C,0x63,0x54,
0x49,0x1C,0x22,0x54,0x40,0x1E,0x81,0x42,
0xF7,0xDB,0x12,0x98,0x07,0x97,0x38,0x1A,
0x40,0x1E,0x06,0x90,0x07,0xE0,0x0B,0x98,
0x00,0x28,0x04,0xD1,0x11,0x20,0x12,0x90,
0x00,0x20,0x18,0x90,0x61,0xE7,0x07,0x9A,
0x18,0x99,0x00,0x20,0xA0,0x54,0x0F,0x98,
0x81,0x60,0x07,0x99,0x41,0x60,0x06,0x99,
0x01,0x60,0x4B,0xE7,0xF0,0xB5,0xD2,0x1D,
0x04,0x00,0xD0,0x08,0x0D,0x00,0xC0,0x00,
0x95,0xB0,0x01,0x68,0x40,0x68,0x02,0x91,
0x01,0x00,0x03,0x90,0x02,0x98,0x00,0xF0,
0xE6,0xEF,0x02,0x00,0x03,0x98,0xC1,0x0F,
0x2D,0x20,0x00,0x29,0x06,0xD1,0x21,0x68,
0x2B,0x20,0x8B,0x07,0x02,0xD4,0x48,0x07,
0xC0,0x0F,0x40,0x01,0x03,0x2A,0x07,0x90,
0x01,0xD0,0x07,0x2A,0x05,0xDB,0x03,0x00,
0x29,0x00,0x20,0x00,0x00,0xF0,0xEA,0xF9,
0x05,0xE1,0x20,0x68,0x80,0x06,0x01,0xD5,
0xE7,0x69,0x00,0xE0,0x06,0x27,0x28,0x00,
0x11,0x23,0x65,0x2D,0x1B,0xD0,0x66,0x28,
0x26,0xD0,0x67,0x28,0x61,0xD1,0x01,0x2F,
0x00,0xDA,0x01,0x27,0x00,0x22,0x11,0x2F,
0x00,0x92,0x00,0xDC,0x3B,0x00,0x02,0xAA,
0x0A,0xA9,0x12,0xA8,0xFF,0xF7,0xCF,0xFE,
0x20,0x68,0x00,0x26,0x3D,0x00,0x00,0x07,
0x35,0xD4,0x13,0x98,0xA8,0x42,0x00,0xDA,
0x05,0x00,0x0A,0xA8,0x28,0xE0,0x00,0x22,
0x11,0x2F,0x00,0x92,0x00,0xDA,0x7B,0x1C,
0x02,0xAA,0x0A,0xA9,0x12,0xA8,0xFF,0xF7,
0xBA,0xFE,0x00,0x26,0x7D,0x1C,0x27,0xE0,
0x01,0x20,0x01,0x22,0xC0,0x07,0x00,0x92,
0x04,0x90,0x3B,0x00,0x02,0xAA,0x0A,0xA9,
0x12,0xA8,0xFF,0xF7,0xAC,0xFE,0x14,0x98,
0x13,0x9D,0x00,0x26,0x00,0x28,0x02,0xD1,
0x12,0x99,0x78,0x1C,0x0D,0x18,0x78,0x1B,
0x02,0xD4,0x46,0x42,0x76,0x1E,0x7D,0x1C,
0xE8,0x1B,0x05,0x90,0x21,0xE0,0x6D,0x1E,
0x01,0x2D,0x04,0xDD,0x41,0x19,0x20,0x39,
0xC9,0x7F,0x30,0x29,0xF7,0xD0,0x12,0x98,
0xB8,0x42,0x01,0xDA,0x01,0x1D,0x03,0xDA,
0x01,0x20,0x05,0x90,0x12,0x98,0x0F,0xE0,
0x00,0x28,0x02,0xDC,0x86,0x19,0x2D,0x1A,
0x04,0xE0,0x40,0x1C,0xA8,0x42,0x01,0xDD,
0x12,0x9D,0x6D,0x1C,0x12,0x98,0x80,0x1B,
0x40,0x1C,0x05,0x90,0x01,0x20,0xC0,0x07,
0x04,0x90,0x20,0x68,0x00,0x07,0x05,0xD4,
0x05,0x98,0xA8,0x42,0x02,0xDB,0x00,0x20,
0xC0,0x43,0x05,0x90,0x08,0xAB,0x00,0x20,
0xD8,0x71,0x04,0x98,0x01,0x21,0x09,0xAF,
0x03,0x37,0xC9,0x07,0x88,0x42,0x24,0xD0,
0x02,0x20,0x01,0x90,0x2B,0x20,0x00,0x90,
0x04,0x98,0x00,0x28,0x0B,0xDA,0x40,0x42,
0x04,0x90,0x2D,0x20,0x00,0x90,0x06,0xE0,
0x04,0x98,0x00,0xF0,0x12,0xE9,0x30,0x31,
0x7F,0x1E,0x04,0x90,0x39,0x70,0x01,0x98,
0x41,0x1E,0x00,0x28,0x01,0x91,0xF3,0xDC,
0x04,0x98,0x00,0x28,0xF0,0xD1,0x00,0x98,
0x7F,0x1E,0x38,0x70,0x21,0x68,0x45,0x20,
0x09,0x05,0x00,0xD4,0x65,0x20,0x7F,0x1E,
0x38,0x70,0x08,0xA8,0xC0,0x1B,0xC0,0x1D,
0x06,0x90,0x07,0x98,0x00,0x28,0x00,0xD0,
0x01,0x20,0x41,0x19,0x05,0x98,0xC0,0x17,
0x09,0x18,0x06,0x98,0x08,0x18,0xA1,0x69,
0x08,0x1A,0x40,0x1E,0xA0,0x61,0x20,0x68,
0xC0,0x06,0x02,0xD4,0x20,0x00,0xFF,0xF7,
0x15,0xFA,0x07,0x98,0x00,0x28,0x05,0xD0,
0x62,0x68,0xA1,0x68,0x90,0x47,0x20,0x6A,
0x40,0x1C,0x20,0x62,0x20,0x68,0xC0,0x06,
0x24,0xD5,0x20,0x00,0xFF,0xF7,0x06,0xFA,
0x20,0xE0,0x00,0x2E,0x07,0xDB,0x13,0x98,
0xB0,0x42,0x04,0xDD,0x0A,0xA8,0x62,0x68,
0x80,0x5D,0xA1,0x68,0x02,0xE0,0x62,0x68,
0xA1,0x68,0x30,0x20,0x90,0x47,0x20,0x6A,
0x76,0x1C,0x40,0x1C,0x20,0x62,0x05,0x98,
0x40,0x1E,0x05,0x90,0x0A,0xD1,0xFF,0xF7,
0x58,0xED,0xC0,0x68,0x62,0x68,0x01,0x68,
0x40,0x5C,0xA1,0x68,0x90,0x47,0x20,0x6A,
0x40,0x1C,0x20,0x62,0x28,0x00,0x6D,0x1E,
0x00,0x28,0xDA,0xDC,0x07,0xE0,0x62,0x68,
0x38,0x78,0xA1,0x68,0x7F,0x1C,0x90,0x47,
0x20,0x6A,0x40,0x1C,0x20,0x62,0x06,0x98,
0x41,0x1E,0x00,0x28,0x06,0x91,0xF2,0xDC,
0x20,0x00,0xFF,0xF7,0xE4,0xF9,0x15,0xB0,
0x02,0x20,0xF0,0xBD,0x01,0xFC,0xFF,0xFF,
0x10,0x4D,0x00,0x00,0xE1,0xDF,0xFF,0xFF,
0x17,0xC0,0x8F,0xE2,0x1C,0xFF,0x2F,0xE1,
0x10,0xB5,0x43,0x69,0x00,0x2B,0x02,0xD0,
0xAF,0xF3,0x00,0x80,0x01,0xE0,0xFF,0xF7,
0xF5,0xF9,0x01,0x20,0x10,0xBD,0x12,0x68,
0x01,0x00,0x24,0x31,0x0A,0x70,0x00,0x22,
0x4A,0x70,0x01,0x22,0xEC,0xE7,0x11,0x68,
0x00,0x22,0xD2,0x43,0xE8,0xE7,0x00,0x00,
0x17,0xC0,0x8F,0xE2,0x1C,0xFF,0x2F,0xE1,
0x10,0xB5,0x43,0x69,0x00,0x2B,0x02,0xD0,
0xAF,0xF3,0x00,0x80,0x01,0xE0,0xFF,0xF7,
0x7B,0xFA,0x01,0x20,0x10,0xBD,0x12,0x68,
0x01,0x00,0x24,0x31,0x82,0x84,0x00,0x22,
0xC2,0x84,0x01,0x22,0xEC,0xE7,0x11,0x68,
0x00,0x22,0xD2,0x43,0xE8,0xE7,0x3A,0x28,
0x00,0xD2,0x30,0x38,0x20,0x23,0x02,0x00,
0x9A,0x43,0x41,0x2A,0x01,0xD3,0x10,0x00,
0x37,0x38,0x00,0x22,0xD2,0x43,0x88,0x42,
0x00,0xD2,0x02,0x00,0x10,0x00,0x70,0x47,
0x70,0xB5,0x05,0x00,0x0C,0x00,0x16,0x00,
0xFF,0xF7,0x66,0xE9,0x00,0x68,0xFF,0x21,
0x02,0x31,0x09,0x5C,0x01,0x29,0x0A,0xD1,
0xFF,0x21,0x08,0x31,0x32,0x00,0x09,0x58,
0x43,0x18,0xFF,0x33,0x08,0x33,0x21,0x00,
0x28,0x00,0x98,0x47,0x70,0xBD,0xFF,0x2C,
0x05,0xD8,0x00,0x5D,0x00,0x28,0x02,0xD0,
0x01,0x20,0x2C,0x70,0x70,0xBD,0x00,0x20,
0xC0,0x43,0x70,0xBD,0x00,0x20,0xA0,0xE3,
0x00,0x40,0x2D,0xE9,0x02,0x30,0xA0,0xE1,
0x02,0xC0,0xA0,0xE1,0x02,0xE0,0xA0,0xE1,
0x20,0x10,0x51,0xE2,0x0C,0x50,0xA0,0x28,
0x0C,0x50,0xA0,0x28,0x20,0x10,0x51,0x22,
0xFB,0xFF,0xFF,0x2A,0x01,0x1E,0xB0,0xE1,
0x0C,0x50,0xA0,0x28,0x0C,0x00,0xA0,0x48,
0x00,0x40,0xBD,0xE8,0x01,0x11,0xB0,0xE1,
0x04,0x20,0x80,0x24,0x1E,0xFF,0x2F,0x01,
0xB2,0x20,0xC0,0x40,0x01,0x01,0x11,0xE3,
0x01,0x20,0xC0,0x14,0x1E,0xFF,0x2F,0xE1,
0x0A,0x10,0x40,0xE2,0x20,0x01,0x40,0xE0,
0x20,0x02,0x80,0xE0,0x20,0x04,0x80,0xE0,
0x20,0x08,0x80,0xE0,0xA0,0x01,0xA0,0xE1,
0x00,0x21,0x80,0xE0,0x82,0x10,0x51,0xE0,
0x01,0x00,0x80,0x52,0x0A,0x10,0x81,0x42,
0x1E,0xFF,0x2F,0xE1,0x0E,0x50,0xA0,0xE1,
0x3D,0xFE,0xFF,0xEB,0x05,0xE0,0xA0,0xE1,
0x00,0x50,0xB0,0xE1,0x0D,0x10,0xA0,0xE1,
0x0A,0x30,0xA0,0xE1,0x07,0x00,0xC0,0xE3,
0x00,0xD0,0xA0,0xE1,0x60,0xD0,0x8D,0xE2,
0x20,0x40,0x2D,0xE9,0x8A,0x00,0x00,0xEB,
0x20,0x40,0xBD,0xE8,0x00,0x60,0xA0,0xE3,
0x00,0x70,0xA0,0xE3,0x00,0x80,0xA0,0xE3,
0x00,0xB0,0xA0,0xE3,0x07,0x10,0xC1,0xE3,
0x05,0xC0,0xA0,0xE1,0xC0,0x09,0xAC,0xE8,
0xC0,0x09,0xAC,0xE8,0xC0,0x09,0xAC,0xE8,
0xC0,0x09,0xAC,0xE8,0x01,0xD0,0xA0,0xE1,
0x1E,0xFF,0x2F,0xE1,0xF8,0xB5,0x04,0x00,
0x01,0x68,0x01,0x20,0x1F,0x00,0xC0,0x02,
0x03,0x26,0x08,0x40,0x07,0x2A,0x04,0xDB,
0x00,0x28,0x17,0xA5,0x05,0xD1,0x17,0xA5,
0x03,0xE0,0x00,0x28,0x16,0xA5,0x00,0xD1,
0x16,0xA5,0x10,0x20,0x81,0x43,0x21,0x60,
0xA0,0x69,0xC0,0x1E,0x00,0x2F,0xA0,0x61,
0x01,0xD0,0x40,0x1E,0xA0,0x61,0x20,0x00,
0xFF,0xF7,0xCC,0xF8,0x00,0x2F,0x01,0xD1,
0x20,0x6A,0x06,0xE0,0x62,0x68,0xA1,0x68,
0x38,0x00,0x90,0x47,0x20,0x6A,0x40,0x1C,
0x20,0x62,0xC0,0x1C,0x20,0x62,0x04,0xE0,
0x62,0x68,0x28,0x78,0xA1,0x68,0x6D,0x1C,
0x90,0x47,0x76,0x1E,0xF8,0xD2,0x20,0x00,
0xFF,0xF7,0xC9,0xF8,0xF8,0xBD,0x00,0x00,
0x4E,0x41,0x4E,0x00,0x6E,0x61,0x6E,0x00,
0x49,0x4E,0x46,0x00,0x69,0x6E,0x66,0x00,
0xF7,0xB5,0x08,0x00,0x17,0x00,0x2E,0x49,
0x8A,0xB0,0x79,0x44,0x06,0xAC,0x2C,0xC9,
0x2C,0xC4,0x2C,0xC9,0x37,0x21,0x03,0xAC,
0xC9,0x01,0x40,0x18,0x2C,0xC4,0x37,0x21,
0x1B,0x30,0x00,0xF0,0xB4,0xE8,0x05,0x00,
0x80,0x3D,0x0C,0x00,0x1B,0x3C,0x02,0xD5,
0x64,0x42,0x01,0x20,0x00,0xE0,0x00,0x20,
0x00,0x26,0x09,0x90,0x0F,0xE0,0xE0,0x07,
0x0B,0xD0,0x0C,0x20,0x1E,0x49,0x70,0x43,
0x79,0x44,0xBA,0x39,0x41,0x18,0x3A,0x00,
0x06,0xA8,0x00,0xF0,0x12,0xEC,0x06,0xAB,
0x07,0xC3,0x64,0x10,0x76,0x1C,0x00,0x2C,
0xED,0xD1,0x6E,0x46,0x18,0xE0,0xE8,0x07,
0x14,0xD0,0x15,0x48,0x21,0x01,0x78,0x44,
0xA4,0x38,0x08,0x18,0x0E,0xC8,0x0E,0xC6,
0x00,0x68,0x0C,0x3E,0xF8,0x42,0x02,0xD1,
0x02,0x98,0xC0,0x19,0x02,0x90,0x69,0x46,
0x3A,0x00,0x03,0xA8,0x00,0xF0,0xF4,0xEB,
0x03,0xAB,0x07,0xC3,0x6D,0x10,0x64,0x1C,
0x00,0x2D,0xE4,0xD1,0x09,0x98,0x00,0x28,
0x05,0xD0,0x3A,0x00,0x06,0xA9,0x03,0xA8,
0x00,0xF0,0xCE,0xEB,0x04,0xE0,0x3A,0x00,
0x06,0xA9,0x03,0xA8,0x00,0xF0,0xE0,0xEB,
0x0A,0x9B,0x07,0xC3,0x0D,0xB0,0xF0,0xBD,
0x3E,0x0F,0x00,0x00,0x04,0x00,0xAF,0xF3,
0x00,0x80,0x20,0x00,0xFE,0xF7,0xD4,0xEC,
0x03,0x00,0x10,0xE3,0x03,0x00,0x11,0x03,
0x17,0x00,0x00,0x1A,0x00,0x40,0x2D,0xE9,
0x84,0xE0,0x9F,0xE5,0x04,0x20,0x90,0xE4,
0x04,0x30,0x91,0xE4,0x0E,0xC0,0x42,0xE0,
0x02,0xC0,0xCC,0xE1,0x8E,0xC3,0x1C,0xE0,
0x03,0x00,0x52,0x01,0xF8,0xFF,0xFF,0x0A,
0x00,0x40,0xBD,0xE8,0x03,0x0C,0xA0,0xE1,
0x02,0x0C,0x50,0xE0,0xFF,0x0E,0x1C,0x03,
0x07,0x00,0x00,0x1A,0x03,0x08,0xA0,0xE1,
0x02,0x08,0x50,0xE0,0xFF,0x0C,0x1C,0x03,
0x03,0x00,0x00,0x1A,0x03,0x04,0xA0,0xE1,
0x02,0x04,0x50,0xE0,0xFF,0x08,0x1C,0x03,
0x02,0x00,0x53,0x00,0x60,0x00,0xA0,0x11,
0x1E,0xFF,0x2F,0xE1,0x01,0x20,0xD0,0xE4,
0x01,0x30,0xD1,0xE4,0x01,0x00,0x52,0xE3,
0x03,0x00,0x52,0x21,0x04,0x00,0x00,0x1A,
0x01,0x20,0xD0,0xE4,0x01,0x30,0xD1,0xE4,
0x01,0x00,0x52,0xE3,0x03,0x00,0x52,0x21,
0xF5,0xFF,0xFF,0x0A,0x03,0x00,0x42,0xE0,
0x1E,0xFF,0x2F,0xE1,0x01,0x01,0x01,0x01,
0xC6,0xF9,0xFF,0xEA,0x08,0x00,0x9F,0xE5,
0x08,0x30,0x9F,0xE5,0x00,0x20,0xA0,0xE1,
0x1E,0xFF,0x2F,0xE1,0x00,0x00,0x03,0x20,
0x00,0x40,0x03,0x20,0x01,0x30,0x90,0xE1,
0x21,0x00,0x00,0x4A,0x00,0x20,0xB0,0xE3,
0xA0,0x30,0x71,0xE0,0x1A,0x00,0x00,0x3A,
0x20,0x32,0x71,0xE0,0x0F,0x00,0x00,0x3A,
0x20,0x34,0x71,0xE0,0x01,0x00,0x00,0x3A,
0x00,0xC0,0xA0,0xE3,0x20,0x00,0x00,0xEA,
0xA0,0x33,0x71,0xE0,0x81,0x03,0x40,0x20,
0x02,0x20,0xB2,0xE0,0x20,0x33,0x71,0xE0,
0x01,0x03,0x40,0x20,0x02,0x20,0xB2,0xE0,
0xA0,0x32,0x71,0xE0,0x81,0x02,0x40,0x20,
0x02,0x20,0xB2,0xE0,0x20,0x32,0x71,0xE0,
0x01,0x02,0x40,0x20,0x02,0x20,0xB2,0xE0,
0xA0,0x31,0x71,0xE0,0x81,0x01,0x40,0x20,
0x02,0x20,0xB2,0xE0,0x20,0x31,0x71,0xE0,
0x01,0x01,0x40,0x20,0x02,0x20,0xB2,0xE0,
0xA0,0x30,0x71,0xE0,0x81,0x00,0x40,0x20,
0x02,0x20,0xB2,0xE0,0x01,0x10,0x50,0xE0,
0x00,0x10,0xA0,0x31,0x02,0x00,0xA2,0xE0,
0x1E,0xFF,0x2F,0xE1,0x02,0x21,0x11,0xE2,
0x00,0x10,0x61,0x42,0x40,0xC0,0x32,0xE0,
0x00,0x00,0x60,0x22,0x20,0x32,0x71,0xE0,
0x1D,0x00,0x00,0x3A,0x20,0x34,0x71,0xE0,
0x0F,0x00,0x00,0x3A,0x01,0x13,0xA0,0xE1,
0x20,0x34,0x71,0xE0,0x3F,0x23,0x82,0xE3,
0x0B,0x00,0x00,0x3A,0x01,0x13,0xA0,0xE1,
0x20,0x34,0x71,0xE0,0x3F,0x26,0x82,0xE3,
0x07,0x00,0x00,0x3A,0x01,0x13,0xA0,0xE1,
0x20,0x34,0x71,0xE0,0x3F,0x29,0x82,0xE3,
0x01,0x13,0xA0,0x21,0x3F,0x2C,0x82,0x23,
0x00,0x30,0x71,0xE2,0x1D,0x00,0x00,0x2A,
0x21,0x13,0xA0,0x21,0xA0,0x33,0x71,0xE0,
0x81,0x03,0x40,0x20,0x02,0x20,0xB2,0xE0,
0x20,0x33,0x71,0xE0,0x01,0x03,0x40,0x20,
0x02,0x20,0xB2,0xE0,0xA0,0x32,0x71,0xE0,
0x81,0x02,0x40,0x20,0x02,0x20,0xB2,0xE0,
0x20,0x32,0x71,0xE0,0x01,0x02,0x40,0x20,
0x02,0x20,0xB2,0xE0,0xA0,0x31,0x71,0xE0,
0x81,0x01,0x40,0x20,0x02,0x20,0xB2,0xE0,
0x20,0x31,0x71,0xE0,0x01,0x01,0x40,0x20,
0x02,0x20,0xB2,0xE0,0xEB,0xFF,0xFF,0x2A,
0xA0,0x30,0x71,0xE0,0x81,0x00,0x40,0x20,
0x02,0x20,0xB2,0xE0,0x01,0x10,0x50,0xE0,
0x00,0x10,0xA0,0x31,0x02,0x00,0xA2,0xE0,
0xCC,0xCF,0xB0,0xE1,0x00,0x00,0x60,0x42,
0x00,0x10,0x61,0x22,0x1E,0xFF,0x2F,0xE1,
0xCC,0xCF,0xB0,0xE1,0x00,0x00,0x60,0x42,
0x01,0x40,0x2D,0xE9,0x00,0x00,0xB0,0xE3,
0x00,0x00,0x00,0xEB,0x02,0x80,0xBD,0xE8,
0x01,0x00,0x00,0xEA,0x70,0x47,0x70,0x47,
0x70,0x47,0x00,0x00,0x07,0x40,0x2D,0xE9,
0x02,0x00,0xB0,0xE3,0x00,0x00,0x00,0xFA,
0x07,0x80,0xBD,0xE8,0x01,0x00,0x10,0xB5,
0x02,0x20,0x00,0xF0,0xF0,0xEB,0x10,0xBD,
0x80,0xC0,0xB0,0xE1,0x00,0x00,0x31,0x03,
0x2C,0x0A,0xA0,0xE1,0x0C,0x35,0xA0,0xE1,
0x81,0x25,0xA0,0xE1,0x1E,0x0B,0x80,0x12,
0xA1,0x1A,0x83,0xE1,0x60,0x00,0xA0,0xE1,
0x02,0x11,0x81,0x13,0xCC,0xCA,0xB0,0xE1,
0x17,0x00,0x00,0x0A,0x01,0x00,0x7C,0xE3,
0x01,0x01,0x80,0x03,0x1E,0xFF,0x2F,0xE1,
0x22,0x38,0xB0,0xE1,0x02,0x28,0xA0,0x01,
0x10,0xC0,0xA0,0x03,0x00,0xC0,0xA0,0x13,
0x1F,0x00,0x40,0xE2,0x22,0x3C,0xB0,0xE1,
0x02,0x24,0xA0,0x01,0x08,0xC0,0x8C,0x02,
0x22,0x3E,0xB0,0xE1,0x02,0x22,0xA0,0x01,
0x04,0xC0,0x8C,0x02,0x22,0x3F,0xB0,0xE1,
0x02,0x21,0xA0,0x01,0x02,0xC0,0x8C,0x02,
0xA2,0x3F,0xB0,0xE1,0x82,0x20,0xA0,0x01,
0x01,0xC0,0x8C,0x02,0x02,0x10,0xA0,0xE1,
0x00,0x20,0xA0,0xE3,0x0C,0x00,0x40,0xE0,
0x1E,0xFF,0x2F,0xE1,0x02,0x01,0x11,0xE3,
0x1E,0xFF,0x2F,0x01,0x02,0x11,0xD1,0xE3,
0xE6,0xFF,0xFF,0x0A,0x21,0x38,0xB0,0xE1,
0x01,0x18,0xA0,0x01,0x10,0xC0,0xA0,0x03,
0x00,0xC0,0xA0,0x13,0x21,0x3C,0xB0,0xE1,
0x01,0x14,0xA0,0x01,0x08,0xC0,0x8C,0x02,
0x21,0x3E,0xB0,0xE1,0x01,0x12,0xA0,0x01,
0x04,0xC0,0x8C,0x02,0x21,0x3F,0xB0,0xE1,
0x01,0x11,0xA0,0x01,0x02,0xC0,0x8C,0x02,
0xA1,0x3F,0xB0,0xE1,0x01,0xC0,0x8C,0x02,
0x20,0x30,0x6C,0xE2,0x81,0x10,0xA0,0x01,
0x32,0x13,0x81,0xE1,0x12,0x2C,0xA0,0xE1,
0x0C,0x00,0x40,0xE0,0x01,0x00,0x80,0xE2,
0x1E,0xFF,0x2F,0xE1,0xFF,0xC4,0xC0,0xE3,
0x03,0x00,0x20,0xE0,0xFF,0x74,0xC3,0xE3,
0x07,0x30,0x4C,0xE0,0x3F,0x3C,0x83,0xE2,
0x02,0x01,0x00,0xE2,0xFF,0x30,0x83,0xE2,
0x80,0x49,0x2D,0xE9,0x22,0x6E,0x8F,0xE2,
0x09,0x00,0x2D,0xE9,0x24,0x38,0xA0,0xE1,
0x25,0xB8,0xA0,0xE1,0x23,0x64,0xD6,0xE7,
0x0B,0xE8,0xC5,0xE1,0x03,0x88,0xC4,0xE1,
0xA1,0x10,0xB0,0xE1,0x93,0x66,0x27,0xE0,
0x62,0x20,0xB0,0xE1,0x02,0x01,0xA0,0x23,
0x00,0x00,0xA0,0x33,0x02,0x75,0x67,0xE2,
0x97,0x06,0x06,0xE0,0xA4,0x76,0xA0,0xE1,
0xA6,0x69,0xA0,0xE1,0x02,0x60,0x86,0xE2,
0x97,0x66,0x2C,0xE0,0x02,0xC2,0x6C,0xE2,
0x2C,0x78,0xA0,0xE1,0x07,0xC8,0xCC,0xE1,
0x97,0x06,0x04,0xE0,0x9C,0x06,0x05,0xE0,
0xA1,0x77,0xA0,0xE1,0x25,0x68,0x84,0xE0,
0x26,0x63,0xA0,0xE1,0x96,0x07,0x0C,0xE0,
0x2C,0xC8,0xA0,0xE1,0x9C,0x0B,0x07,0xE0,
0x0C,0x48,0xA0,0xE1,0x07,0x20,0x52,0xE0,
0x93,0x0C,0x07,0xE0,0x07,0x10,0xC1,0xE0,
0x9C,0x0E,0x07,0xE0,0x07,0x08,0x50,0xE0,
0x27,0x28,0xD2,0xE0,0x9C,0x08,0x07,0xE0,
0x07,0x28,0x42,0x30,0x07,0x28,0x52,0x20,
0x27,0x18,0xC1,0xE0,0x21,0x71,0xA0,0xE1,
0x96,0x07,0x0C,0xE0,0x2C,0xC8,0xA0,0xE1,
0x9C,0x0B,0x07,0xE0,0x87,0x09,0x50,0xE0,
0xA7,0x26,0xD2,0xE0,0x93,0x0C,0x07,0xE0,
0x87,0x29,0x42,0x30,0x87,0x29,0x52,0x20,
0xA7,0x16,0xC1,0xE0,0x9C,0x0E,0x07,0xE0,
0x8C,0x41,0x84,0xE0,0x87,0x01,0x50,0xE0,
0xA7,0x2E,0xD2,0xE0,0x9C,0x08,0x07,0xE0,
0x87,0x21,0x42,0x30,0x87,0x21,0x52,0x20,
0xA7,0x1E,0xC1,0xE0,0x0C,0x70,0x9D,0xE5,
0x01,0x1D,0xA0,0xE1,0x22,0x13,0x81,0xE1,
0x02,0x2D,0xA0,0xE1,0xA1,0x77,0xA0,0xE1,
0x20,0x23,0x82,0xE1,0x96,0x07,0x0C,0xE0,
0x00,0x0D,0xA0,0xE1,0x2C,0xC8,0xA0,0xE1,
0x9C,0x0B,0x07,0xE0,0x0C,0x5B,0xA0,0xE1,
0x2C,0x45,0x84,0xE0,0x07,0x20,0x52,0xE0,
0x93,0x0C,0x07,0xE0,0x07,0x10,0xC1,0xE0,
0x9C,0x0E,0x07,0xE0,0x07,0x08,0x50,0xE0,
0x27,0x28,0xD2,0xE0,0x9C,0x08,0x07,0xE0,
0x07,0x28,0x42,0x30,0x07,0x28,0x52,0x20,
0x27,0x18,0xC1,0xE0,0x21,0x71,0xA0,0xE1,
0x96,0x07,0x0C,0xE0,0x2C,0xC8,0xA0,0xE1,
0x9C,0x0B,0x07,0xE0,0x87,0x09,0x50,0xE0,
0xA7,0x26,0xD2,0xE0,0x93,0x0C,0x07,0xE0,
0x87,0x29,0x42,0x30,0x87,0x29,0x52,0x20,
0xA7,0x16,0xC1,0xE0,0x9C,0x0E,0x07,0xE0,
0x87,0x01,0x50,0xE0,0xA7,0x2E,0xD2,0xE0,
0x9C,0x08,0x07,0xE0,0x87,0x21,0x42,0x30,
0x87,0x21,0x52,0x20,0xA7,0x1E,0xC1,0xE0,
0x01,0x1D,0xA0,0xE1,0x22,0x13,0x81,0xE1,
0x8C,0x54,0x95,0xE0,0xA1,0x77,0xA0,0xE1,
0x02,0x2D,0xA0,0xE1,0x96,0x07,0x0C,0xE0,
0x20,0x23,0x82,0xE1,0x00,0x40,0xA4,0xE2,
0x00,0x0D,0xA0,0xE1,0x2C,0xC8,0xA0,0xE1,
0x9C,0x0B,0x07,0xE0,0x0C,0x6E,0xA0,0xE1,
0x07,0x20,0x52,0xE0,0x93,0x0C,0x07,0xE0,
0x07,0x10,0xC1,0xE0,0x9C,0x0E,0x07,0xE0,
0x07,0x08,0x50,0xE0,0x27,0x28,0xD2,0xE0,
0x9C,0x08,0x07,0xE0,0x07,0x28,0x42,0x30,
0x07,0x28,0x52,0x20,0x27,0x18,0xC1,0xE0,
0x2C,0x52,0x95,0xE0,0x01,0x17,0xA0,0xE1,
0x22,0x19,0x81,0xE1,0x02,0x27,0xA0,0xE1,
0x20,0x29,0x82,0xE1,0x00,0x07,0xA0,0xE1,
0x00,0x40,0xA4,0xE2,0x03,0x38,0x88,0xE1,
0x0B,0x88,0x8E,0xE1,0x00,0xE0,0xA0,0xE3,
0x00,0xB0,0xA0,0xE3,0x08,0xC0,0x52,0xE0,
0x03,0x70,0xD1,0xE0,0x0E,0xE0,0xAE,0xE0,
0x0C,0x20,0xA0,0x21,0x07,0x10,0xA0,0x21,
0x00,0x00,0x90,0xE0,0x02,0x20,0xB2,0xE0,
0x01,0x10,0xB1,0xE0,0x0B,0xB0,0xAB,0xE0,
0x08,0xC0,0x52,0xE0,0x03,0x70,0xD1,0xE0,
0x00,0xB0,0xDB,0xE2,0x00,0xB0,0xA0,0xE3,
0x0E,0xE0,0xAE,0xE0,0x0C,0x20,0xA0,0x21,
0x07,0x10,0xA0,0x21,0x00,0x00,0x90,0xE0,
0x02,0x20,0xB2,0xE0,0x01,0x10,0xB1,0xE0,
0x0B,0xB0,0xAB,0xE0,0x08,0xC0,0x52,0xE0,
0x03,0x70,0xD1,0xE0,0x00,0xB0,0xDB,0xE2,
0x0C,0x20,0xA0,0x21,0x07,0x10,0xA0,0x21,
0x0E,0xE0,0xAE,0xE0,0x02,0x70,0x91,0xE1,
0x01,0x60,0x86,0x13,0x0E,0x6E,0x96,0xE0,
0x00,0x20,0xB5,0xE2,0x00,0x10,0xB4,0xE2,
0x89,0x01,0xBD,0x48,0x00,0x88,0xBD,0x48,
0x06,0x60,0x96,0xE0,0x89,0x01,0xBD,0xE8,
0x02,0x20,0xB2,0xE0,0x00,0x48,0xBD,0xE8,
0x01,0x10,0xA1,0xE0,0x01,0x30,0x43,0xE2,
0x1E,0xFF,0x2F,0xE1,0x80,0x80,0x7F,0x7E,
0x7D,0x7C,0x7B,0x7A,0x79,0x78,0x77,0x76,
0x76,0x75,0x74,0x73,0x72,0x71,0x71,0x70,
0x6F,0x6E,0x6E,0x6D,0x6C,0x6C,0x6B,0x6A,
0x6A,0x69,0x68,0x68,0x67,0x66,0x66,0x65,
0x64,0x64,0x63,0x63,0x62,0x61,0x61,0x60,
0x60,0x5F,0x5F,0x5E,0x5E,0x5D,0x5D,0x5C,
0x5C,0x5B,0x5B,0x5A,0x5A,0x59,0x59,0x58,
0x58,0x57,0x57,0x56,0x56,0x55,0x55,0x55,
0x54,0x54,0x53,0x53,0x52,0x52,0x52,0x51,
0x51,0x50,0x50,0x50,0x4F,0x4F,0x4F,0x4E,
0x4E,0x4D,0x4D,0x4D,0x4C,0x4C,0x4C,0x4B,
0x4B,0x4B,0x4A,0x4A,0x4A,0x49,0x49,0x49,
0x48,0x48,0x48,0x47,0x47,0x47,0x47,0x46,
0x46,0x46,0x45,0x45,0x45,0x44,0x44,0x44,
0x44,0x43,0x43,0x43,0x43,0x42,0x42,0x42,
0x42,0x41,0x41,0x41,0x00,0x00,0x53,0xE3,
0x16,0x00,0x00,0x4A,0x86,0x70,0xB0,0xE1,
0x11,0x00,0x00,0x0A,0x1C,0x40,0x2D,0xE9,
0x67,0x70,0xA0,0xE1,0x03,0x00,0x2D,0xE9,
0x10,0x00,0xA0,0xE3,0x10,0x10,0xA0,0xE3,
0x00,0x00,0xA0,0xE3,0x0F,0x00,0xBD,0xE8,
0x01,0xB0,0x8B,0xE2,0x01,0x00,0x5B,0xE3,
0x27,0x70,0xB0,0x01,0x10,0x40,0xBD,0xE8,
0x01,0x20,0x92,0x22,0x01,0x10,0x91,0x22,
0x02,0x11,0xA0,0x23,0x00,0x30,0xA3,0xE2,
0x02,0x01,0x00,0xE2,0x00,0x00,0x83,0xE1,
0x1E,0xFF,0x2F,0xE1,0xFB,0xFF,0xFF,0x3A,
0xA2,0x70,0xB0,0xE1,0xEA,0xFF,0xFF,0xEA,
0x06,0x68,0x86,0xE1,0x40,0x00,0x73,0xE3,
0x26,0x68,0xA0,0xE1,0x0F,0x00,0x00,0xDA,
0x20,0x00,0x73,0xE3,0x02,0x60,0x86,0xD1,
0x01,0x20,0xA0,0xD1,0x00,0x10,0xA0,0xD3,
0x20,0x30,0x83,0xD2,0x00,0x30,0x73,0xE2,
0xDD,0xFF,0xFF,0x0A,0x06,0x68,0x86,0xE1,
0x20,0x70,0x63,0xE2,0x26,0x68,0xA0,0xE1,
0x12,0x67,0x86,0xE1,0x32,0x23,0xA0,0xE1,
0x11,0x27,0x82,0xE1,0x31,0x13,0xA0,0xE1,
0x00,0x30,0xA0,0xE3,0xD4,0xFF,0xFF,0xEA,
0x02,0x60,0x86,0xE1,0x00,0x30,0xA0,0xE3,
0x00,0x20,0xA0,0xE3,0x06,0x68,0x86,0xE1,
0x26,0x68,0xA0,0xE1,0x01,0x60,0x86,0xE1,
0x00,0x10,0xA0,0xE3,0x06,0x68,0x86,0xB1,
0x26,0x68,0xA0,0xB1,0xCA,0xFF,0xFF,0xEA,
0xC0,0x48,0x2D,0xE9,0x02,0xB0,0xA0,0xE1,
0x30,0x00,0x2D,0xE9,0x38,0x00,0x91,0xE8,
0x07,0x00,0x90,0xE8,0x80,0xC0,0xD1,0xE1,
0x83,0xC0,0xD4,0x41,0x01,0x00,0x00,0x5A,
0xED,0xFE,0xFF,0xEB,0xBE,0xFF,0xFF,0xEB,
0xF0,0x00,0xBD,0xE8,0x00,0x88,0xBD,0xE8,
0xC0,0x48,0x2D,0xE9,0x02,0xB0,0xA0,0xE1,
0x30,0x00,0x2D,0xE9,0x38,0x00,0x91,0xE8,
0x07,0x00,0x90,0xE8,0x01,0x01,0x10,0xE3,
0x01,0x01,0x13,0x03,0x01,0x00,0x00,0x1A,
0x02,0x00,0x00,0xEB,0xB2,0xFF,0xFF,0xEB,
0xF0,0x00,0xBD,0xE8,0x00,0x88,0xBD,0xE8,
0xFF,0x74,0xC0,0xE3,0x03,0x00,0x20,0xE0,
0xFF,0xC4,0xC3,0xE3,0x0C,0x30,0x87,0xE0,
0x3F,0x3C,0x43,0xE2,0x02,0x01,0x00,0xE2,
0xFE,0x30,0x43,0xE2,0x00,0x00,0x32,0xE3,
0x5D,0x00,0x00,0x0A,0x00,0x00,0x35,0xE3,
0x3D,0x00,0x00,0x0A,0x01,0x49,0x2D,0xE9,
0x21,0x08,0xA0,0xE1,0x24,0x68,0xA0,0xE1,
0x00,0x88,0xC1,0xE1,0x90,0x06,0x0C,0xE0,
0x06,0x78,0xC4,0xE1,0x98,0x06,0x06,0xE0,
0x97,0x08,0x08,0xE0,0x90,0x07,0x07,0xE0,
0x06,0x88,0x98,0xE0,0x26,0xC8,0xAC,0xE0,
0x22,0xB8,0xA0,0xE1,0x07,0x88,0x98,0xE0,
0x25,0x68,0xA0,0xE1,0x27,0x08,0xAC,0xE0,
0x0B,0xE8,0xC2,0xE1,0x9B,0x06,0x0C,0xE0,
0x06,0x78,0xC5,0xE1,0x9E,0x06,0x06,0xE0,
0x97,0x0E,0x0E,0xE0,0x9B,0x07,0x07,0xE0,
0x06,0xE8,0x9E,0xE0,0x26,0xC8,0xAC,0xE0,
0x00,0x60,0xA0,0xE3,0x07,0xE8,0x9E,0xE0,
0x27,0xB8,0xAC,0xE0,0x0B,0x80,0x98,0xE0,
0x00,0x00,0xA0,0xE2,0x0E,0xB0,0x98,0xE0,
0x00,0x80,0xB8,0xE0,0x00,0x00,0xA0,0xE2,
0x02,0x70,0x51,0xE0,0x00,0x10,0xA0,0xE3,
0x01,0x10,0xE0,0x31,0x05,0x60,0x44,0x30,
0x04,0xC0,0x55,0x10,0x27,0x48,0xA0,0xE1,
0x00,0x10,0xA0,0x03,0x07,0x60,0x46,0x30,
0x04,0x58,0xC7,0xE1,0x2C,0x78,0xA0,0xE1,
0x01,0x10,0xE0,0x31,0x94,0x67,0x22,0xE0,
0x07,0xC8,0xCC,0xE1,0x95,0x07,0x07,0xE0,
0x9C,0x05,0x06,0xE0,0x94,0x0C,0x0C,0xE0,
0x07,0x68,0x96,0xE0,0x27,0x28,0xA2,0xE0,
0x0C,0x68,0x96,0xE0,0x2C,0x28,0xA2,0xE0,
0x06,0x60,0x9B,0xE0,0x0E,0xE1,0x8E,0xE1,
0x02,0x20,0xB8,0xE0,0x01,0x10,0xB0,0xE0,
0x2E,0x61,0x86,0xE1,0x01,0x89,0xBD,0x48,
0x06,0x60,0x96,0xE0,0x02,0x20,0xB2,0xE0,
0x01,0x10,0xA1,0xE0,0x01,0x30,0x43,0xE2,
0x01,0x89,0xBD,0xE8,0x24,0x58,0xA0,0xE1,
0x21,0x78,0xA0,0xE1,0x05,0x68,0xC4,0xE1,
0x07,0xC8,0xC1,0xE1,0x95,0x07,0x04,0xE0,
0x96,0x07,0x07,0xE0,0x9C,0x06,0x01,0xE0,
0x95,0x0C,0x0C,0xE0,0x07,0x18,0x91,0xE0,
0x27,0x48,0xA4,0xE0,0x22,0x78,0xA0,0xE1,
0x0C,0x18,0x91,0xE0,0x2C,0x48,0xA4,0xE0,
0x07,0xC8,0xC2,0xE1,0x95,0x07,0x02,0xE0,
0x96,0x07,0x07,0xE0,0x9C,0x06,0x06,0xE0,
0x95,0x0C,0x0C,0xE0,0x07,0x68,0x96,0xE0,
0x27,0x28,0xA2,0xE0,0x0C,0x68,0x96,0xE0,
0x2C,0x58,0xA2,0xE0,0x01,0x20,0x95,0xE0,
0x00,0x10,0xB4,0xE2,0x1E,0xFF,0x2F,0x41,
0x06,0x60,0x96,0xE0,0x02,0x20,0xB2,0xE0,
0x01,0x10,0xA1,0xE0,0x01,0x30,0x43,0xE2,
0x1E,0xFF,0x2F,0xE1,0x00,0x00,0x35,0xE3,
0x1D,0x00,0x00,0x0A,0x21,0x28,0xA0,0xE1,
0x24,0x78,0xA0,0xE1,0x02,0x68,0xC1,0xE1,
0x07,0xC8,0xC4,0xE1,0x92,0x07,0x01,0xE0,
0x96,0x07,0x07,0xE0,0x9C,0x06,0x04,0xE0,
0x92,0x0C,0x0C,0xE0,0x07,0x48,0x94,0xE0,
0x27,0x18,0xA1,0xE0,0x25,0x78,0xA0,0xE1,
0x0C,0x48,0x94,0xE0,0x2C,0x18,0xA1,0xE0,
0x07,0xC8,0xC5,0xE1,0x92,0x07,0x05,0xE0,
0x96,0x07,0x07,0xE0,0x9C,0x06,0x06,0xE0,
0x92,0x0C,0x0C,0xE0,0x07,0x68,0x96,0xE0,
0x27,0x58,0xA5,0xE0,0x0C,0x68,0x96,0xE0,
0x2C,0x28,0xA5,0xE0,0x04,0x20,0x92,0xE0,
0x00,0x10,0xB1,0xE2,0x1E,0xFF,0x2F,0x41,
0x06,0x60,0x96,0xE0,0x02,0x20,0xB2,0xE0,
0x01,0x10,0xA1,0xE0,0x01,0x30,0x43,0xE2,
0x1E,0xFF,0x2F,0xE1,0x24,0x58,0xA0,0xE1,
0x21,0x78,0xA0,0xE1,0x05,0x68,0xC4,0xE1,
0x07,0xC8,0xC1,0xE1,0x95,0x07,0x01,0xE0,
0x96,0x07,0x07,0xE0,0x9C,0x06,0x02,0xE0,
0x00,0x60,0xA0,0xE3,0x95,0x0C,0x0C,0xE0,
0x07,0x28,0x92,0xE0,0x27,0x18,0xA1,0xE0,
0x0C,0x28,0x92,0xE0,0x2C,0x18,0xB1,0xE0,
0x1E,0xFF,0x2F,0x41,0x02,0x20,0x92,0xE0,
0x01,0x10,0xA1,0xE0,0x01,0x30,0x43,0xE2,
0x1E,0xFF,0x2F,0xE1,0x00,0xC0,0xA0,0xE3,
0x1C,0xFF,0x2F,0xE1,0x04,0xF0,0x1F,0xE5,
0xD5,0x1C,0x00,0x20,0x04,0xF0,0x1F,0xE5,
0x47,0x1C,0x00,0x20,0x04,0xF0,0x1F,0xE5,
0xF1,0x1C,0x00,0x20,0x04,0xF0,0x1F,0xE5,
0x67,0x25,0x00,0x20,0x04,0xF0,0x1F,0xE5,
0x9F,0x25,0x00,0x20,0x04,0xF0,0x1F,0xE5,
0xCD,0x22,0x00,0x20,0x81,0x10,0xA0,0xE1,
0x81,0x05,0x90,0xE1,0x04,0x00,0xA0,0x13,
0xA1,0x2A,0xB0,0xE1,0x14,0x20,0x9F,0xE5,
0x01,0x00,0x80,0x13,0xA1,0x0A,0x52,0xE1,
0x02,0x00,0x80,0x03,0x01,0x00,0x50,0xE3,
0x05,0x00,0xA0,0x03,0x1E,0xFF,0x2F,0xE1,
0xFF,0x07,0x00,0x00,0x10,0x40,0x2D,0xE9,
0x00,0x00,0x51,0xE3,0x09,0x00,0x00,0x0A,
0x00,0x00,0xD1,0xE5,0x00,0x00,0x50,0xE3,
0x06,0x00,0x00,0x0A,0x20,0x00,0x9F,0xE5,
0x00,0x00,0x8F,0xE0,0x4D,0xFD,0xFF,0xEB,
0x00,0x00,0x50,0xE3,0x01,0x00,0x00,0x0A,
0x00,0x00,0xB0,0xE3,0x10,0x80,0xBD,0xE8,
0x08,0x00,0x9F,0xE5,0x00,0x00,0x8F,0xE0,
0x10,0x80,0xBD,0xE8,0xE0,0x03,0x00,0x00,
0xCC,0x03,0x00,0x00,0x10,0x40,0x2D,0xE9,
0x00,0x00,0x51,0xE3,0x09,0x00,0x00,0x0A,
0x00,0x00,0xD1,0xE5,0x00,0x00,0x50,0xE3,
0x06,0x00,0x00,0x0A,0x20,0x00,0x9F,0xE5,
0x00,0x00,0x8F,0xE0,0x3B,0xFD,0xFF,0xEB,
0x00,0x00,0x50,0xE3,0x01,0x00,0x00,0x0A,
0x00,0x00,0xB0,0xE3,0x10,0x80,0xBD,0xE8,
0x08,0x00,0x9F,0xE5,0x00,0x00,0x8F,0xE0,
0x10,0x80,0xBD,0xE8,0xA8,0x04,0x00,0x00,
0x94,0x04,0x00,0x00,0x1E,0xFF,0x2F,0xE1,
0x00,0x00,0xA0,0xE3,0x1E,0xFF,0x2F,0xE1,
0xC9,0xFF,0xFF,0xEA,0x20,0x3D,0x75,0x73,
0x62,0x73,0x74,0x72,0x75,0x63,0x74,0x3D,
0x30,0x78,0x25,0x78,0x2C,0x20,0x75,0x73,
0x62,0x30,0x31,0x3D,0x30,0x78,0x25,0x78,
0x2C,0x20,0x75,0x73,0x62,0x30,0x32,0x3D,
0x30,0x78,0x25,0x78,0x2C,0x20,0x75,0x73,
0x62,0x30,0x33,0x3D,0x30,0x78,0x25,0x78,
0x2C,0x20,0x75,0x73,0x62,0x30,0x34,0x3D,
0x30,0x78,0x25,0x78,0x2C,0x20,0x75,0x73,
0x62,0x30,0x35,0x3D,0x30,0x78,0x25,0x78,
0x2C,0x20,0x75,0x73,0x62,0x30,0x36,0x3D,
0x30,0x78,0x25,0x78,0x2C,0x20,0x75,0x73,
0x62,0x30,0x37,0x3D,0x30,0x78,0x25,0x78,
0x2C,0x20,0x75,0x73,0x62,0x30,0x38,0x3D,
0x30,0x78,0x25,0x78,0x2C,0x20,0x75,0x73,
0x62,0x30,0x39,0x3D,0x30,0x78,0x25,0x78,
0x2C,0x20,0x75,0x73,0x62,0x31,0x30,0x3D,
0x30,0x78,0x25,0x78,0x2C,0x20,0x0A,0x00,
0x75,0x73,0x62,0x31,0x31,0x3D,0x30,0x78,
0x25,0x78,0x2C,0x20,0x75,0x73,0x62,0x31,
0x32,0x3D,0x30,0x78,0x25,0x78,0x2C,0x20,
0x75,0x73,0x62,0x31,0x33,0x3D,0x30,0x78,
0x25,0x78,0x2C,0x20,0x75,0x73,0x62,0x31,
0x34,0x3D,0x30,0x78,0x25,0x78,0x2C,0x20,
0x75,0x73,0x62,0x31,0x35,0x3D,0x30,0x78,
0x25,0x78,0x2C,0x20,0x75,0x73,0x62,0x31,
0x36,0x3D,0x30,0x78,0x25,0x78,0x2C,0x20,
0x75,0x73,0x62,0x31,0x37,0x3D,0x30,0x78,
0x25,0x78,0x2C,0x20,0x75,0x73,0x62,0x31,
0x38,0x3D,0x30,0x78,0x25,0x78,0x2C,0x20,
0x75,0x73,0x62,0x31,0x39,0x3D,0x30,0x78,
0x25,0x78,0x2C,0x20,0x75,0x73,0x62,0x32,
0x30,0x3D,0x30,0x78,0x25,0x78,0x2C,0x20,
0x0A,0x00,0x00,0x00,0x75,0x73,0x62,0x32,
0x31,0x3D,0x30,0x78,0x25,0x78,0x2C,0x20,
0x75,0x73,0x62,0x32,0x32,0x3D,0x30,0x78,
0x25,0x78,0x2C,0x20,0x75,0x73,0x62,0x32,
0x33,0x3D,0x30,0x78,0x25,0x78,0x2C,0x20,
0x75,0x73,0x62,0x32,0x34,0x3D,0x30,0x78,
0x25,0x78,0x2C,0x20,0x75,0x73,0x62,0x32,
0x35,0x3D,0x30,0x78,0x25,0x78,0x2C,0x20,
0x75,0x73,0x62,0x32,0x36,0x3D,0x30,0x78,
0x25,0x78,0x2C,0x20,0x75,0x73,0x62,0x32,
0x37,0x3D,0x30,0x78,0x25,0x78,0x2C,0x20,
0x75,0x73,0x62,0x32,0x38,0x3D,0x30,0x78,
0x25,0x78,0x2C,0x20,0x75,0x73,0x62,0x32,
0x39,0x3D,0x30,0x78,0x25,0x78,0x2C,0x20,
0x75,0x73,0x62,0x33,0x30,0x3D,0x30,0x78,
0x25,0x78,0x2C,0x0A,0x00,0x00,0x00,0x00,
0x75,0x73,0x62,0x33,0x31,0x3D,0x30,0x78,
0x25,0x78,0x2C,0x20,0x75,0x73,0x62,0x33,
0x32,0x3D,0x30,0x78,0x25,0x78,0x2C,0x20,
0x75,0x73,0x62,0x33,0x33,0x3D,0x30,0x78,
0x25,0x78,0x2C,0x20,0x75,0x73,0x62,0x33,
0x34,0x3D,0x30,0x78,0x25,0x78,0x2C,0x20,
0x75,0x73,0x62,0x33,0x35,0x3D,0x30,0x78,
0x25,0x78,0x2C,0x20,0x75,0x73,0x62,0x33,
0x36,0x3D,0x30,0x78,0x25,0x78,0x2C,0x20,
0x75,0x73,0x62,0x33,0x37,0x3D,0x30,0x78,
0x25,0x78,0x2C,0x20,0x75,0x73,0x62,0x33,
0x38,0x3D,0x30,0x78,0x25,0x78,0x2C,0x20,
0x75,0x73,0x62,0x33,0x39,0x3D,0x30,0x78,
0x25,0x78,0x2C,0x20,0x75,0x73,0x62,0x34,
0x30,0x3D,0x30,0x78,0x25,0x78,0x2C,0x20,
0x0A,0x00,0x00,0x00,0x75,0x73,0x62,0x34,
0x31,0x3D,0x30,0x78,0x25,0x78,0x2C,0x20,
0x75,0x73,0x62,0x34,0x32,0x3D,0x30,0x78,
0x25,0x78,0x2C,0x20,0x75,0x73,0x62,0x34,
0x33,0x3D,0x30,0x78,0x25,0x78,0x2C,0x20,
0x75,0x73,0x62,0x34,0x34,0x3D,0x30,0x78,
0x25,0x78,0x2C,0x20,0x75,0x73,0x62,0x34,
0x35,0x3D,0x30,0x78,0x25,0x78,0x2C,0x20,
0x75,0x73,0x62,0x34,0x36,0x3D,0x30,0x78,
0x25,0x78,0x2C,0x20,0x75,0x73,0x62,0x34,
0x37,0x3D,0x30,0x78,0x25,0x78,0x2C,0x20,
0x75,0x73,0x62,0x34,0x38,0x3D,0x30,0x78,
0x25,0x78,0x2C,0x20,0x75,0x73,0x62,0x34,
0x39,0x3D,0x30,0x78,0x25,0x78,0x2C,0x20,
0x75,0x73,0x62,0x35,0x30,0x3D,0x30,0x78,
0x25,0x78,0x0A,0x00,0x00,0x00,0x00,0x00,
0x00,0x00,0x00,0x00,0x30,0x31,0x32,0x33,
0x34,0x35,0x36,0x37,0x38,0x39,0x41,0x42,
0x43,0x44,0x45,0x46,0x40,0x30,0x58,0x00,
0x30,0x31,0x32,0x33,0x34,0x35,0x36,0x37,
0x38,0x39,0x61,0x62,0x63,0x64,0x65,0x66,
0x40,0x30,0x78,0x00,0x04,0x00,0x00,0x08,
0x00,0x00,0x00,0x00,0x00,0x00,0x00,0x02,
0x00,0x01,0x00,0x00,0x10,0x00,0x00,0x00,
0x02,0x40,0x00,0x00,0x00,0x00,0x00,0xA0,
0x00,0x00,0x00,0x00,0x05,0x40,0x00,0x00,
0x00,0x00,0x00,0xC8,0x00,0x00,0x00,0x00,
0x0C,0x40,0x00,0x00,0x00,0x00,0x40,0x9C,
0x00,0x00,0x00,0x00,0x19,0x40,0x00,0x00,
0x00,0x20,0xBC,0xBE,0x00,0x00,0x00,0x00,
0x34,0x40,0x00,0x00,0xBF,0xC9,0x1B,0x8E,
0x00,0x00,0x00,0x04,0xB5,0x40,0x00,0x00,
0x50,0x4B,0xCF,0xD0,0x66,0x07,0xE2,0xCF,
0x01,0x00,0x00,0x00,0x6C,0x41,0x00,0x00,
0x3E,0x82,0x51,0xAA,0xDF,0xEE,0xA7,0x34,
0x01,0x00,0x00,0x00,0xD9,0x42,0x00,0x00,
0xDC,0xB5,0xA0,0xE2,0x3A,0x30,0x1F,0x97,
0xFF,0xFF,0xFF,0xFF,0xB4,0x45,0x00,0x00,
0xFD,0x25,0xA0,0xC8,0xE9,0xA3,0xC1,0x4F,
0xFF,0xFF,0xFF,0xFF,0xFF,0x3F,0x00,0x00,
0x00,0x00,0x00,0x80,0x00,0x00,0x00,0x00,
0xFF,0x3F,0x00,0x00,0x00,0x00,0x00,0x80,
0x00,0x00,0x00,0x00,0x18,0x38,0x00,0x20,
0x18,0x38,0x00,0x20,0x60,0x00,0x00,0x00,
0xA0,0x10,0x00,0x20,0x10,0x01,0x00,0x00,
0x43,0x00,0x00,0x00,0xF8,0xFF,0xFF,0xFF,
0x00,0x40,0x40,0x40,0x40,0x40,0x40,0x40,
0x40,0x40,0x41,0x41,0x41,0x41,0x41,0x40,
0x40,0x40,0x40,0x40,0x40,0x40,0x40,0x40,
0x40,0x40,0x40,0x40,0x40,0x40,0x40,0x40,
0x40,0x05,0x02,0x02,0x02,0x02,0x02,0x02,
0x02,0x02,0x02,0x02,0x02,0x02,0x02,0x02,
0x02,0x20,0x20,0x20,0x20,0x20,0x20,0x20,
0x20,0x20,0x20,0x02,0x02,0x02,0x02,0x02,
0x02,0x02,0x90,0x90,0x90,0x90,0x90,0x90,
0x10,0x10,0x10,0x10,0x10,0x10,0x10,0x10,
0x10,0x10,0x10,0x10,0x10,0x10,0x10,0x10,
0x10,0x10,0x10,0x10,0x02,0x02,0x02,0x02,
0x02,0x02,0x88,0x88,0x88,0x88,0x88,0x88,
0x08,0x08,0x08,0x08,0x08,0x08,0x08,0x08,
0x08,0x08,0x08,0x08,0x08,0x08,0x08,0x08,
0x08,0x08,0x08,0x08,0x02,0x02,0x02,0x02,
0x40,0x00,0x00,0x00,0x00,0x00,0x00,0x00,
0x00,0x00,0x00,0x00,0x00,0x00,0x00,0x00,
0x00,0x00,0x00,0x00,0x00,0x00,0x00,0x00,
0x00,0x00,0x00,0x00,0x00,0x00,0x00,0x00,
0x00,0x00,0x00,0x00,0x00,0x00,0x00,0x00,
0x00,0x00,0x00,0x00,0x00,0x00,0x00,0x00,
0x00,0x00,0x00,0x00,0x00,0x00,0x00,0x00,
0x00,0x00,0x00,0x00,0x00,0x00,0x00,0x00,
0x00,0x00,0x00,0x00,0x00,0x00,0x00,0x00,
0x00,0x00,0x00,0x00,0x00,0x00,0x00,0x00,
0x00,0x00,0x00,0x00,0x00,0x00,0x00,0x00,
0x00,0x00,0x00,0x00,0x00,0x00,0x00,0x00,
0x00,0x00,0x00,0x00,0x00,0x00,0x00,0x00,
0x00,0x00,0x00,0x00,0x00,0x00,0x00,0x00,
0x00,0x00,0x00,0x00,0x00,0x00,0x00,0x00,
0x00,0x00,0x00,0x00,0x00,0x00,0x00,0x00,
0x00,0x00,0x00,0x00,0x1C,0x00,0x00,0x00,
0x43,0x00,0x00,0x00,0xF8,0xFF,0xFF,0xFF,
0x0C,0x00,0x00,0x00,0x0E,0x00,0x00,0x00,
0x0F,0x00,0x00,0x00,0x2E,0x00,0x00,0x00,
0x00,0x00,0x00,0x00,0x00,0x00,0x00,0x00,
0x73,0x69,0x7A,0x65,0x3A,0x20,0x5F,0x31,
0x30,0x2F,0x30,0x36,0x2F,0x31,0x31,0x5F,
0x31,0x39,0x3A,0x33,0x39,0xA6,0x7B,0x1C,
0x91,0x04,0xD5,0x09,0xCA,0x31,0xC2,0x9F,
0xD4,0x9C,0x75,0x93,0x37,0xFD,0x44,0x41,
0x94,0x75,0x71,0xA2,0x45,0xEF,0x81,0x7D,
0x7B,0x73,0x38,0x3A,0x6A,0x6B,0x27,0x41,
0xC2,0x9B,0x49,0xA2,0x65,0x3B,0xB5,0x3E,
0xF0,0xF8,0x73,0x94,0x24,0x8E,0xF5,0x40,
0x66,0x55,0x13,0xBD,0x81,0x9B,0xD9,0xFE,
0xFA,0x51,0x03,0xE5,0xF7,0xD5,0xE0,0x73,
0xEC,0xC5,0x98,0x84,0x88,0x34,0xBB,0x20,
0x7B,0x8F,0xA9,0xE3,0x07,0x2C,0x3E,0xEF,
0x21,0x1E,0x66,0x17,0xED,0xF2,0xB4,0xF3,
0x3D,0xA0,0x5C,0xCE,0x0E,0xDF,0x04,0xBE,
0xEA,0xD7,0x03,0x68,0xA8,0x06,0x76,0x0F,
0xAE,0x87,0x0C,0xE4,0xA0,0x3C,0xB3,0x53,
0xFD,0xBA,0x35,0xC6,0xCA,0xAB,0x0B,0x16,
0x19,0xA7,0xCE,0x87,0x5A,0x55,0xEF,0x52,
0x33,0xA7,0xE5,0xD5,0xD7,0x62,0x19,0x67,
0xAE,0x6C,0x1C,0x93,0xDC,0x23,0x7C,0xD6,
0xDF,0xC9,0x3A,0xFF,0x47,0x4D,0xCF,0xE7,
0x82,0x42,0xE3,0x78,0xF7,0x94,0xB4,0x0B,
0xED,0x1E,0x44,0x8D,0x94,0x8A,0x3C,0x65,
0xB9,0x68,0x0E,0x8A,0x08,0xB4,0x54,0xB0,
0x27,0xB0,0x31,0x09,0x87,0x26,0x38,0x08,
0x7F,0xC2,0x03,0xEF,0x4D,0xBA,0x86,0xBB,
0x29,0x2F,0x1F,0x31,0xAB,0x45,0x97,0x85,
0x39,0x91,0x41,0x79,0x5A,0xC5,0xA0,0x2D,
0x04,0x4E,0x76,0xDA,0xD9,0x47,0xA5,0x4D,
0xA5,0xD6,0x30,0xBE,0x09,0x8C,0x21,0xF4,
0x0D,0x22,0xB3,0xC5,0xC5,0x0F,0x9E,0x44,
0xC9,0x3D,0xA4,0x2A,0xEF,0x5F,0x24,0x28,
0xA5,0x8E,0xB1,0x69,0x70,0x3A,0xC1,0xCE,
0xC8,0x2E,0x79,0xA2,0xE6,0xFF,0xFF,0xFF,
0xFF,0xFF,0xFF,0xFF,0xFF,0xFF,0xFF,0xFF,
0xFF,0xFF,0xFF,0xFF,0xFF,0xFF,0xFF,0xFF,
0xFF,0xFF,0xFF,0xFF,0xFF,0xFF,0xFF,0xFF,
0xFF,0xFF,0xFF,0xFF,0xFF,0xFF,0xFF,0xFF,
0xFF,0xFF,0xFF,0xFF,0xFF,0xFF,0xFF,0xFF,
0xFF,0xFF,0xFF,0xFF,0xFF,0xFF,0xFF,0xFF,
0xFF,0xFF,0xFF,0xFF,0xFF,0xFF,0xFF,0xFF,
0xFF,0xFF,0xFF,0xFF,0xFF,0xFF,0xFF,0xFF,
0xFF,0xFF,0xFF,0xFF,0xFF,0xFF,0xFF,0xFF,
0xFF,0xFF,0xFF,0xFF,0xFF,0xFF,0xFF,0xFF,
0xFF,0xFF,0xFF,0xFF,0xFF,0xFF,0xFF,0xFF,
0xFF,0xFF,0xFF,0xFF,0xFF,0xFF,0xFF,0xFF,
0xFF,0xFF,0xFF,0xFF,0xFF,0xFF,0xFF,0xFF,
0xFF,0xFF,0xFF,0xFF,0xFF,0xFF,0xFF,0xFF,
0xFF,0xFF,0xFF,0xFF,0xFF,0xFF,0xFF,0xFF,
0xFF,0xFF,0xFF,0xFF,0xFF,0xFF,0xFF,0xFF,
0xFF,0xFF,0xFF,0xFF,0xFF,0xFF,0xFF,0xFF,
0xFF,0xFF,0xFF,0xFF,0xFF,0xFF,0xFF,0xFF,
0xFF,0xFF,0xFF,0xFF,0xFF,0xFF,0xFF,0xFF,
0xFF,0xFF,0xFF,0xFF,0xFF,0xFF,0xFF,0xFF,
0xFF,0xFF,0xFF,0xFF,0xFF,0xFF,0xFF,0xFF,
0xFF,0xFF,0xFF,0xFF,0xFF,0xFF,0xFF,0xFF,
0xFF,0xFF,0xFF,0xFF,0xFF,0xFF,0xFF,0xFF,
0xFF,0xFF,0xFF,0xFF,0xFF,0xFF,0xFF,0xFF,
0xFF,0xFF,0xFF,0xFF,0xFF,0xFF,0xFF,0xFF,
0xFF,0xFF,0xFF,0xFF,0xFF,0xFF,0xFF,0xFF,
0xFF,0xFF,0xFF,0xFF,0xFF,0xFF,0xFF,0xFF,
0xFF,0xFF,0xFF,0xFF,0xFF,0xFF,0xFF,0xFF,
0xFF,0xFF,0xFF,0xFF,0xFF,0xFF,0xFF,0xFF,
0xFF,0xFF,0xFF,0xFF,0xFF,0xFF,0xFF,0xFF,
0xFF,0xFF,0xFF,0xFF,0xFF,0xFF,0xFF,0xFF,
0xFF,0xFF,0xFF,0xFF,0xFF,0xFF,0xFF,0xFF,
0xFF,0xFF,0xFF,0xFF,0xFF,0xFF,0xFF,0xFF,
0xFF,0xFF,0xFF,0xFF,0xFF,0xFF,0xFF,0xFF,
0xFF,0xFF,0xFF,0xFF,0xFF,0xFF,0xFF,0xFF,
0xFF,0xFF,0xFF,0xFF,0xFF,0xFF,0xFF,0xFF,
0xFF,0xFF,0xFF,0xFF,0xFF,0xFF,0xFF,0xFF,
0xFF,0xFF,0xFF,0xFF,0xFF,0xFF,0xFF,0xFF,
0xFF,0xFF,0xFF,0xFF,0xFF,0xFF,0xFF,0xFF,
0xFF,0xFF,0xFF,0xFF,0xFF,0xFF,0xFF,0xFF,
0xFF,0xFF,0xFF,0xFF,0xFF,0xFF,0xFF,0xFF,
0xFF,0xFF,0xFF,0xFF,0xFF,0xFF,0xFF,0xFF,
0xFF,0xFF,0xFF,0xFF,0xFF,0xFF,0xFF,0xFF,
0xFF,0xFF,0xFF,0xFF,0xFF,0xFF,0xFF,0xFF,
0xFF,0xFF,0xFF,0xFF,0xFF,0xFF,0xFF,0xFF,
0xFF,0xFF,0xFF,0xFF,0xFF,0xFF,0xFF,0xFF,
0xFF,0xFF,0xFF,0xFF,0xFF,0xFF,0xFF,0xFF,
0xFF,0xFF,0xFF,0xFF,0xFF,0xFF,0xFF,0xFF,
0xFF,0xFF,0xFF,0xFF,0xFF,0xFF,0xFF,0xFF,
0xFF,0xFF,0xFF,0xFF,0xFF,0xFF,0xFF,0xFF,
0xFF,0xFF,0xFF,0xFF,0xFF,0xFF,0xFF,0xFF,
0xFF,0xFF,0xFF,0xFF,0xFF,0xFF,0xFF,0xFF,
0xFF,0xFF,0xFF,0xFF,0xFF,0xFF,0xFF,0xFF,
0xFF,0xFF,0xFF,0xFF,0xFF,0xFF,0xFF,0xFF,
0xFF,0xFF,0xFF,0xFF,0xFF,0xFF,0xFF,0xFF,
0xFF,0xFF,0xFF,0xFF,0xFF,0xFF,0xFF,0xFF,
0xFF,0xFF,0xFF,0xFF,0xFF,0xFF,0xFF,0xFF,
0xFF,0xFF,0xFF,0xFF,0xFF,0xFF,0xFF,0xFF,
0xFF,0xFF,0xFF,0xFF,0xFF,0xFF,0xFF,0xFF,
0xFF,0xFF,0xFF,0xFF,0xFF,0xFF,0xFF,0xFF,
0xFF,0xFF,0xFF,0xFF,0xFF,0xFF,0xFF,0xFF,
0xFF,0xFF,0xFF,0xFF,0xFF,0xFF,0xFF,0xFF,
0xFF,0xFF,0xFF,0xFF,0xFF,0xFF,0xFF,0xFF,
0xFF,0xFF,0xFF,0xFF,0xFF,0xFF,0xFF,0xFF,
0xFF,0xFF,0xFF,0xFF,0xFF,0xFF,0xFF,0xFF,
0xFF,0xFF,0xFF,0xFF,0xFF,0xFF,0xFF,0xFF,
0xFF,0xFF,0xFF,0xFF,0xFF,0xFF,0xFF,0xFF,
0xFF,0xFF,0xFF,0xFF,0xFF,0xFF,0xFF,0xFF,
0xFF,0xFF,0xFF,0xFF,0xFF,0xFF,0xFF,0xFF,
0xFF,0xFF,0xFF,0xFF,0xFF,0xFF,0xFF,0xFF,
0xFF,0xFF,0xFF,0xFF,0xFF,0xFF,0xFF,0xFF,
0xFF,0xFF,0xFF,0xFF,0xFF,0xFF,0xFF,0xFF,
0xFF,0xFF,0xFF,0xFF,0xFF,0xFF,0xFF,0xFF,
0xFF,0xFF,0xFF,0xFF,0xFF,0xFF,0xFF,0xFF,
0xFF,0xFF,0xFF,0xFF,0xFF,0xFF,0xFF,0xFF,
0xFF,0xFF,0xFF,0xFF,0xFF,0xFF,0xFF,0xFF,
0xFF,0xFF,0xFF,0xFF,0xFF,0xFF,0xFF,0xFF,
0xFF,0xFF,0xFF,0xFF,0xFF,0xFF,0xFF,0xFF,
0xFF,0xFF,0xFF,0xFF,0xFF,0xFF,0xFF,0xFF,
0xFF,0xFF,0xFF,0xFF,0xFF,0xFF,0xFF,0xFF,
0xFF,0xFF,0xFF,0xFF,0xFF,0xFF,0xFF,0xFF,
0xFF,0xFF,0xFF,0xFF,0xFF,0xFF,0xFF,0xFF,
0xFF,0xFF,0xFF,0xFF,0xFF,0xFF,0xFF,0xFF,
0xFF,0xFF,0xFF,0xFF,0xFF,0xFF,0xFF,0xFF,
0xFF,0xFF,0xFF,0xFF,0xFF,0xFF,0xFF,0xFF,
0xFF,0xFF,0xFF,0xFF,0xFF,0xFF,0xFF,0xFF,
0xFF,0xFF,0xFF,0xFF,0xFF,0xFF,0xFF,0xFF,
0xFF,0xFF,0xFF,0xFF,0xFF,0xFF,0xFF,0xFF,
0xFF,0xFF,0xFF,0xFF,0xFF,0xFF,0xFF,0xFF,
0xFF,0xFF,0xFF,0xFF,0xFF,0xFF,0xFF,0xFF,
0xFF,0xFF,0xFF,0xFF,0xFF,0xFF,0xFF,0xFF,
0xFF,0xFF,0xFF,0xFF,0xFF,0xFF,0xFF,0xFF,
0xFF,0xFF,0xFF,0xFF,0xFF,0xFF,0xFF,0xFF,
0xFF,0xFF,0xFF,0xFF,0xFF,0xFF,0xFF,0xFF,
0xFF,0xFF,0xFF,0xFF,0xFF,0xFF,0xFF,0xFF,
0xFF,0xFF,0xFF,0xFF,0xFF,0xFF,0xFF,0xFF,
0xFF,0xFF,0xFF,0xFF,0xFF,0xFF,0xFF,0xFF,
0xFF,0xFF,0xFF,0xFF,0xFF,0xFF,0xFF,0xFF,
0xFF,0xFF,0xFF,0xFF,0xFF,0xFF,0xFF,0xFF,
0xFF,0xFF,0xFF,0xFF,0xFF,0xFF,0xFF,0xFF,
0xFF,0xFF,0xFF,0xFF,0xFF,0xFF,0xFF,0xFF,
0xFF,0xFF,0xFF,0xFF,0xFF,0xFF,0xFF,0xFF,
0xFF,0xFF,0xFF,0xFF,0xFF,0xFF,0xFF,0xFF,
0xFF,0xFF,0xFF,0xFF,0xFF,0xFF,0xFF,0xFF,
0xFF,0xFF,0xFF,0xFF,0xFF,0xFF,0xFF,0xFF,
0xFF,0xFF,0xFF,0xFF,0xFF,0xFF,0xFF,0xFF,
0xFF,0xFF,0xFF,0xFF,0xFF,0xFF,0xFF,0xFF,
0xFF,0xFF,0xFF,0xFF,0xFF,0xFF,0xFF,0xFF,
0xFF,0xFF,0xFF,0xFF,0xFF,0xFF,0xFF,0xFF,
0xFF,0xFF,0xFF,0xFF,0xFF,0xFF,0xFF,0xFF,
0xFF,0xFF,0xFF,0xFF,0xFF,0xFF,0xFF,0xFF,
0xFF,0xFF,0xFF,0xFF,0xFF,0xFF,0xFF,0xFF,
0xFF,0xFF,0xFF,0xFF,0xFF,0xFF,0xFF,0xFF,
0xFF,0xFF,0xFF,0xFF,0xFF,0xFF,0xFF,0xFF,
0xFF,0xFF,0xFF,0xFF,0xFF,0xFF,0xFF,0xFF,
0xFF,0xFF,0xFF,0xFF,0xFF,0xFF,0xFF,0xFF,
0xFF,0xFF,0xFF,0xFF,0xFF,0xFF,0xFF,0xFF,
0xFF,0xFF,0xFF,0xFF,0xFF,0xFF,0xFF,0xFF,
0xFF,0xFF,0xFF,0xFF,0xFF,0xFF,0xFF,0xFF,
0xFF,0xFF,0xFF,0xFF,0xFF,0xFF,0xFF,0xFF,
0xFF,0xFF,0xFF,0xFF,0xFF,0xFF,0xFF,0xFF,
0xFF,0xFF,0xFF,0xFF,0xFF,0xFF,0xFF,0xFF,
0xFF,0xFF,0xFF,0xFF,0xFF,0xFF,0xFF,0xFF,
0xFF,0xFF,0xFF,0xFF,0xFF,0xFF,0xFF,0xFF,
0xFF,0xFF,0xFF,0xFF,0xFF,0xFF,0xFF,0xFF,
0xFF,0xFF,0xFF,0xFF,0xFF,0xFF,0xFF,0xFF,
0xFF,0xFF,0xFF,0xFF,0xFF,0xFF,0xFF,0xFF,
0xFF,0xFF,0xFF,0xFF,0xFF,0xFF,0xFF,0xFF,
0xFF,0xFF,0xFF,0xFF,0xFF,0xFF,0xFF,0xFF,
0xFF,0xFF,0xFF,0xFF,0xFF,0xFF,0xFF,0xFF,
0xFF,0xFF,0xFF,0xFF,0xFF,0xFF,0xFF,0xFF,
0xFF,0xFF,0xFF,0xFF,0xFF,0xFF,0xFF,0xFF,
0xFF,0xFF,0xFF,0xFF,0xFF,0xFF,0xFF,0xFF,
0xFF,0xFF,0xFF,0xFF,0xFF,0xFF,0xFF,0xFF,
0xFF,0xFF,0xFF,0xFF,0xFF,0xFF,0xFF,0xFF,
0xFF,0xFF,0xFF,0xFF,0xFF,0xFF,0xFF,0xFF,
0xFF,0xFF,0xFF,0xFF,0xFF,0xFF,0xFF,0xFF,
0xFF,0xFF,0xFF,0xFF,0xFF,0xFF,0xFF,0xFF,
0xFF,0xFF,0xFF,0xFF,0xFF,0xFF,0xFF,0xFF,
0xFF,0xFF,0xFF,0xFF,0xFF,0xFF,0xFF,0xFF,
0xFF,0xFF,0xFF,0xFF,0xFF,0xFF,0xFF,0xFF,
0xFF,0xFF,0xFF,0xFF,0xFF,0xFF,0xFF,0xFF,
0xFF,0xFF,0xFF,0xFF,0xFF,0xFF,0xFF,0xFF,
0xFF,0xFF,0xFF,0xFF,0xFF,0xFF,0xFF,0xFF,
0xFF,0xFF,0xFF,0xFF,0xFF,0xFF,0xFF,0xFF,
0xFF,0xFF,0xFF,0xFF,0xFF,0xFF,0xFF,0xFF,
0xFF,0xFF,0xFF,0xFF,0xFF,0xFF,0xFF,0xFF,
0xFF,0xFF,0xFF,0xFF,0xFF,0xFF,0xFF,0xFF,
0xFF,0xFF,0xFF,0xFF,0xFF,0xFF,0xFF,0xFF,
0xFF,0xFF,0xFF,0xFF,0xFF,0xFF,0xFF,0xFF,
0xFF,0xFF,0xFF,0xFF,0xFF,0xFF,0xFF,0xFF,
0xFF,0xFF,0xFF,0xFF,0xFF,0xFF,0xFF,0xFF,
0xFF,0xFF,0xFF,0xFF,0xFF,0xFF,0xFF,0xFF,
0xFF,0xFF,0xFF,0xFF,0xFF,0xFF,0xFF,0xFF,